<?xml version="1.0" encoding="utf-8"?>
<!-- Generator: Adobe Illustrator 16.0.0, SVG Export Plug-In . SVG Version: 6.00 Build 0)  -->
<!DOCTYPE svg PUBLIC "-//W3C//DTD SVG 1.1//EN" "http://www.w3.org/Graphics/SVG/1.1/DTD/svg11.dtd">
<svg version="1.1" id="Layer_1" xmlns="http://www.w3.org/2000/svg" xmlns:xlink="http://www.w3.org/1999/xlink" x="0px" y="0px"
	 width="107.5px" height="125.001px" viewBox="0 0 107.5 125.001" enable-background="new 0 0 107.5 125.001" xml:space="preserve">
<g id="XMLID_1119_">
	<g id="XMLID_1128_">
		<polyline id="XMLID_1129_" fill="#FFC800" points="50.848,0.541 106.995,0.541 91.506,35.394 106.995,70.244 58.59,70.244 		"/>
	</g>
	<g id="XMLID_1126_" opacity="0.25">
		<polyline id="XMLID_1127_" fill="#FF0066" points="50.848,0.541 106.995,0.541 91.506,35.394 106.995,70.244 58.59,70.244 		"/>
	</g>
	<g id="XMLID_1124_">
		<path id="XMLID_1125_" fill="#B20B4F" d="M4.378,124.46L4.378,124.46c-2.142,0-3.873-1.733-3.873-3.873V6.351
			c0-2.138,1.731-3.872,3.873-3.872l0,0c2.139,0,3.872,1.734,3.872,3.872v114.236C8.25,122.727,6.517,124.46,4.378,124.46z"/>
	</g>
	<g id="XMLID_1122_">
		<path id="XMLID_1123_" fill="#FFC800" d="M58.59,8.287H8.25V77.99h46.467c2.141,0,3.873-1.733,3.873-3.872V8.287z"/>
	</g>
	<g id="XMLID_1120_">
		<polygon id="XMLID_1121_" fill="#FFFFFF" points="50.848,8.287 58.59,8.287 50.848,0.541 		"/>
	</g>
</g>
</svg>
