<?xml version="1.0" encoding="utf-8"?>
<!-- Generator: Adobe Illustrator 16.0.0, SVG Export Plug-In . SVG Version: 6.00 Build 0)  -->
<!DOCTYPE svg PUBLIC "-//W3C//DTD SVG 1.1//EN" "http://www.w3.org/Graphics/SVG/1.1/DTD/svg11.dtd">
<svg version="1.1" id="Layer_1" xmlns="http://www.w3.org/2000/svg" xmlns:xlink="http://www.w3.org/1999/xlink" x="0px" y="0px"
	 width="50.001px" height="34.238px" viewBox="0 0 50.001 34.238" enable-background="new 0 0 50.001 34.238" xml:space="preserve">
<g id="XMLID_620_">
	<circle id="XMLID_631_" fill="#FFFFFF" cx="218.958" cy="-500.208" r="4.24"/>
	<g id="XMLID_629_">
		<path id="XMLID_630_" fill="#FFC907" d="M229.149-503.99h-33.085c-0.537,0-0.972-0.436-0.972-0.974v-12.572
			c0-9.658,7.857-17.515,17.515-17.515s17.516,7.856,17.516,17.515v12.572C230.123-504.426,229.687-503.99,229.149-503.99z"/>
	</g>
	<g id="XMLID_627_">
		
			<path id="XMLID_628_" fill="none" stroke="#656565" stroke-width="0.2556" stroke-linecap="round" stroke-linejoin="round" stroke-miterlimit="10" d="
			M197.039-522.5"/>
	</g>
	<g id="XMLID_625_" opacity="0.25">
		<path id="XMLID_626_" fill="#ED1B68" d="M212.611-503.99h-16.547c-0.537,0-0.972-0.436-0.972-0.974v-12.572
			c0-9.658,7.857-17.515,17.515-17.515c0,0,0.002,0,0.004,0V-503.99z"/>
	</g>
	<g id="XMLID_623_">
		<path id="XMLID_624_" fill="#B21E51" d="M195.096-506.91c-1.07,0-1.946,0.876-1.946,1.946l0,0c0,1.07,0.876,1.946,1.946,1.946
			h35.03c1.07,0,1.945-0.876,1.945-1.946l0,0c0-1.07-0.875-1.946-1.945-1.946H195.096z"/>
	</g>
	<circle id="XMLID_622_" fill="#FFC907" cx="212.606" cy="-538.357" r="5.19"/>
	<path id="XMLID_621_" opacity="0.25" fill="#ED1B68" d="M207.417-538.357c0,2.866,2.325,5.189,5.19,5.189v-10.379
		C209.742-543.547,207.417-541.225,207.417-538.357z"/>
</g>
<g id="XMLID_595_">
	<g id="XMLID_618_">
		<rect id="XMLID_619_" x="210.38" y="-324.515" fill="#B21E51" width="4.461" height="11.151"/>
	</g>
	<path id="XMLID_617_" fill="#FFC907" d="M218.555-316.337H206.66c-1.229,0-2.229,1-2.229,2.229v2.975
		c0,0.41,0.332,0.743,0.743,0.743h14.868c0.411,0,0.743-0.333,0.743-0.743v-2.975C220.785-315.337,219.785-316.337,218.555-316.337z
		"/>
	<path id="XMLID_616_" opacity="0.25" fill="#ED1B68" d="M218.555-316.337H206.66c-1.229,0-2.229,1-2.229,2.229v2.975
		c0,0.41,0.332,0.743,0.743,0.743h14.868c0.411,0,0.743-0.333,0.743-0.743v-2.975C220.785-315.337,219.785-316.337,218.555-316.337z
		"/>
	<g id="XMLID_614_">
		<path id="XMLID_615_" fill="#FFC907" d="M218.555-316.337h-5.944v5.947h7.431c0.411,0,0.743-0.333,0.743-0.743v-2.975
			C220.785-315.337,219.785-316.337,218.555-316.337z"/>
	</g>
	<g id="XMLID_611_">
		<path id="XMLID_613_" fill="#FFC907" d="M201.458-329.718c-0.195,0-0.394-0.04-0.583-0.122
			c-7.163-3.068-12.005-11.076-12.051-19.926c-0.004-0.801,0.305-1.553,0.869-2.121c0.563-0.566,1.314-0.878,2.109-0.878h8.914
			c0.821,0,1.487,0.665,1.487,1.486s-0.666,1.487-1.487,1.487h-8.914c0.034,7.693,4.152,14.609,10.243,17.219
			c0.754,0.323,1.104,1.197,0.78,1.952C202.584-330.057,202.036-329.718,201.458-329.718z"/>
		<path id="XMLID_612_" opacity="0.25" fill="#ED1B68" d="M201.458-329.718c-0.195,0-0.394-0.04-0.583-0.122
			c-7.163-3.068-12.005-11.076-12.051-19.926c-0.004-0.801,0.305-1.553,0.869-2.121c0.563-0.566,1.314-0.878,2.109-0.878h8.914
			c0.821,0,1.487,0.665,1.487,1.486s-0.666,1.487-1.487,1.487h-8.914c0.034,7.693,4.152,14.609,10.243,17.219
			c0.754,0.323,1.104,1.197,0.78,1.952C202.584-330.057,202.036-329.718,201.458-329.718z"/>
	</g>
	<g id="XMLID_608_">
		<path id="XMLID_610_" fill="#FFC907" d="M223.762-329.718c-0.576,0-1.126-0.339-1.366-0.902c-0.325-0.755,0.026-1.629,0.781-1.952
			c6.09-2.609,10.207-9.525,10.246-17.209l-8.918-0.01c-0.821,0-1.486-0.666-1.486-1.487s0.665-1.486,1.486-1.486h8.912
			c0.798,0,1.546,0.312,2.111,0.878c0.565,0.568,0.874,1.32,0.868,2.121c-0.045,8.85-4.887,16.857-12.049,19.926
			C224.157-329.758,223.958-329.718,223.762-329.718z"/>
		<path id="XMLID_609_" opacity="0.25" fill="#ED1B68" d="M223.762-329.718c-0.576,0-1.126-0.339-1.366-0.902
			c-0.325-0.755,0.026-1.629,0.781-1.952c6.09-2.609,10.207-9.525,10.246-17.209l-8.918-0.01c-0.821,0-1.486-0.666-1.486-1.487
			s0.665-1.486,1.486-1.486h8.912c0.798,0,1.546,0.312,2.111,0.878c0.565,0.568,0.874,1.32,0.868,2.121
			c-0.045,8.85-4.887,16.857-12.049,19.926C224.157-329.758,223.958-329.718,223.762-329.718z"/>
	</g>
	<g id="XMLID_606_">
		<path id="XMLID_607_" fill="#FFC907" d="M225.246-357.226h-25.276c-0.411,0-0.743,0.333-0.743,0.743v20.073
			c0,7.378,6.003,13.382,13.381,13.382c7.379,0,13.382-6.004,13.382-13.382v-20.073
			C225.989-356.893,225.657-357.226,225.246-357.226z"/>
	</g>
	<g id="XMLID_604_">
		
			<path id="XMLID_605_" fill="none" stroke="#656565" stroke-width="0.1953" stroke-linecap="round" stroke-linejoin="round" stroke-miterlimit="10" d="
			M200.712-332.617"/>
	</g>
	<g id="XMLID_602_" opacity="0.25">
		<path id="XMLID_603_" fill="#ED1B68" d="M212.611-357.226h-12.642c-0.411,0-0.743,0.333-0.743,0.743v20.073
			c0,7.378,6.003,13.382,13.381,13.382c0.002,0,0.002,0,0.004,0V-357.226z"/>
	</g>
	<g id="XMLID_600_">
		<path id="XMLID_601_" fill="#FFC907" d="M213.613-347.574l1.444,4.442h4.67c1.022,0,1.448,1.31,0.621,1.911l-3.778,2.745
			l1.442,4.442c0.317,0.974-0.798,1.783-1.627,1.181l-3.778-2.745l-3.778,2.745c-0.827,0.603-1.941-0.207-1.626-1.181l1.444-4.442
			l-3.778-2.745c-0.829-0.602-0.403-1.911,0.62-1.911h4.671l1.444-4.442C211.919-348.548,213.297-348.548,213.613-347.574z"/>
	</g>
	<g id="XMLID_598_">
		<path id="XMLID_599_" fill="#FFFFFF" d="M219.727-343.132h-4.67l-1.444-4.442c-0.158-0.485-0.58-0.729-1.002-0.73v12.709
			l3.774,2.743c0.829,0.603,1.944-0.207,1.627-1.181l-1.442-4.442l3.778-2.745C221.175-341.822,220.75-343.132,219.727-343.132z"/>
	</g>
	<g id="XMLID_596_">
		<path id="XMLID_597_" fill="#B21E51" d="M199.229-354.995c-0.817,0-1.486-0.669-1.486-1.487l0,0c0-0.817,0.669-1.486,1.486-1.486
			h26.764c0.817,0,1.486,0.669,1.486,1.486l0,0c0,0.818-0.669,1.487-1.486,1.487H199.229z"/>
	</g>
</g>
<g id="XMLID_581_">
	<g id="XMLID_593_">
		<path id="XMLID_594_" fill="#FFC907" d="M221.945-433.296c-0.675-0.408-1.492-0.433-2.189-0.069l-30.137,15.754
			c-0.492,0.256-0.797,0.761-0.797,1.316v6.533c0,0.557,0.305,1.062,0.797,1.319l30.137,15.752c0.327,0.171,0.681,0.257,1.033,0.257
			c0.399,0,0.8-0.109,1.156-0.325c0.673-0.408,1.074-1.121,1.074-1.908v-36.722C223.019-432.176,222.618-432.889,221.945-433.296z"
			/>
	</g>
	<g id="XMLID_591_" opacity="0.25">
		<path id="XMLID_592_" fill="#ED1B68" d="M188.822-412.805v3.043c0,0.557,0.305,1.062,0.797,1.318l30.137,15.753
			c0.327,0.171,0.681,0.257,1.033,0.257c0.399,0,0.8-0.109,1.156-0.325c0.673-0.408,1.074-1.121,1.074-1.908v-18.138H188.822z"/>
	</g>
	<g id="XMLID_588_">
		<g id="XMLID_589_">
			<path id="XMLID_590_" fill="#FFFFFF" d="M226.481-408.078c-0.191,0-0.381-0.073-0.525-0.219c-0.29-0.289-0.29-0.761,0-1.051
				c2.027-2.029,2.027-5.33,0-7.359c-0.29-0.29-0.29-0.762,0-1.052s0.76-0.29,1.052,0c2.607,2.608,2.607,6.854,0,9.462
				C226.861-408.151,226.671-408.078,226.481-408.078z"/>
		</g>
	</g>
	<g id="XMLID_585_">
		<g id="XMLID_586_">
			<path id="XMLID_587_" fill="#FFFFFF" d="M229.11-405.45c-0.191,0-0.382-0.072-0.526-0.218c-0.29-0.291-0.29-0.761,0-1.052
				c1.686-1.685,2.613-3.925,2.613-6.308s-0.928-4.623-2.613-6.309c-0.29-0.291-0.29-0.761,0-1.051c0.29-0.291,0.76-0.291,1.052,0
				c1.965,1.966,3.048,4.579,3.048,7.359s-1.083,5.394-3.048,7.359C229.489-405.522,229.299-405.45,229.11-405.45z"/>
		</g>
	</g>
	<g id="XMLID_582_">
		<g id="XMLID_583_">
			<path id="XMLID_584_" fill="#FFFFFF" d="M231.738-402.822c-0.191,0-0.382-0.072-0.526-0.218c-0.29-0.29-0.29-0.761,0-1.052
				c2.387-2.387,3.702-5.56,3.702-8.936s-1.315-6.55-3.702-8.938c-0.29-0.289-0.29-0.76,0-1.051c0.29-0.29,0.76-0.29,1.052,0
				c2.667,2.668,4.138,6.215,4.138,9.988c0,3.772-1.471,7.32-4.138,9.987C232.119-402.895,231.927-402.822,231.738-402.822z"/>
		</g>
	</g>
</g>
<g id="XMLID_556_">
	<g id="XMLID_579_">
		<path id="XMLID_580_" fill="#ED1B68" d="M211.245-247.584c0.156-0.234,0.424-0.361,0.71-0.328l12.894,1.549
			c0.232,0.027,0.438,0.163,0.556,0.367l4.692,8.127c0.125,0.217,0.134,0.481,0.021,0.705c-0.111,0.224-0.329,0.377-0.578,0.406
			l-5.312,0.634l-3.204,4.283c-0.142,0.188-0.362,0.298-0.597,0.298c-0.015,0-0.029,0-0.045,0c-0.251-0.016-0.476-0.155-0.6-0.373
			l-8.561-14.887C211.082-247.047,211.09-247.35,211.245-247.584z"/>
	</g>
	<g id="XMLID_577_">
		<path id="XMLID_578_" fill="#B21E51" d="M218.945-245.314c-0.142-0.243-0.132-0.546,0.024-0.781
			c0.154-0.234,0.424-0.36,0.71-0.328l5.886,0.707l4.531,7.848c0.125,0.217,0.134,0.482,0.021,0.705
			c-0.111,0.225-0.329,0.377-0.578,0.406l-5.31,0.634L218.945-245.314z"/>
	</g>
	<g id="XMLID_575_">
		<path id="XMLID_576_" fill="#B21E51" d="M213.975-247.584c-0.154-0.234-0.424-0.361-0.708-0.328l-12.893,1.549
			c-0.232,0.027-0.44,0.163-0.558,0.367l-4.691,8.127c-0.126,0.217-0.134,0.482-0.022,0.705c0.114,0.225,0.331,0.377,0.578,0.406
			l5.312,0.634l3.207,4.283c0.141,0.188,0.362,0.3,0.594,0.3c0.016,0,0.03-0.002,0.047-0.002c0.249-0.016,0.474-0.155,0.601-0.373
			l8.561-14.887C214.141-247.047,214.131-247.35,213.975-247.584z"/>
	</g>
	<g id="XMLID_573_">
		<path id="XMLID_574_" fill="#ED1B68" d="M206.277-245.314c0.142-0.243,0.13-0.546-0.024-0.781
			c-0.155-0.234-0.424-0.36-0.709-0.328l-5.887,0.707l-4.531,7.848c-0.126,0.217-0.134,0.482-0.022,0.705
			c0.114,0.225,0.331,0.377,0.578,0.406l5.312,0.634L206.277-245.314z"/>
	</g>
	<g id="XMLID_571_">
		<path id="XMLID_572_" fill="#FFC907" d="M229.503-263.873c-0.753-0.75-1.468-1.459-1.758-2.162
			c-0.314-0.754-0.316-1.844-0.318-2.897c-0.005-1.67-0.009-3.396-1.132-4.52c-1.122-1.123-2.849-1.127-4.518-1.132
			c-1.055-0.002-2.146-0.004-2.898-0.317c-0.704-0.291-1.412-1.005-2.163-1.761c-1.145-1.152-2.442-2.459-4.105-2.459
			s-2.96,1.307-4.105,2.459c-0.751,0.756-1.459,1.47-2.163,1.761c-0.755,0.313-1.844,0.315-2.897,0.317
			c-1.669,0.005-3.396,0.009-4.519,1.131c-1.124,1.125-1.128,2.851-1.132,4.52c-0.002,1.054-0.004,2.144-0.317,2.897
			c-0.292,0.704-1.006,1.412-1.76,2.163c-1.154,1.145-2.459,2.442-2.459,4.105c0,1.664,1.305,2.962,2.459,4.106
			c0.754,0.75,1.468,1.458,1.76,2.162c0.313,0.754,0.315,1.845,0.317,2.897c0.004,1.67,0.008,3.396,1.132,4.519
			c1.123,1.124,2.85,1.128,4.519,1.131c1.054,0.003,2.143,0.006,2.897,0.318c0.704,0.292,1.412,1.005,2.163,1.761
			c1.146,1.152,2.442,2.459,4.105,2.459s2.961-1.307,4.105-2.459c0.749-0.756,1.459-1.469,2.162-1.761
			c0.754-0.312,1.844-0.315,2.897-0.318c1.669-0.003,3.396-0.007,4.52-1.131c1.123-1.122,1.127-2.849,1.132-4.519
			c0.002-1.053,0.004-2.144,0.318-2.897c0.29-0.704,1.003-1.412,1.76-2.162c1.152-1.145,2.459-2.442,2.459-4.106
			C231.964-261.431,230.658-262.729,229.503-263.873z"/>
	</g>
	<g id="XMLID_569_">
		<path id="XMLID_570_" opacity="0.25" fill="#ED1B68" d="M197.477-266.035c-0.292,0.703-1.006,1.412-1.76,2.162
			c-1.154,1.145-2.459,2.442-2.459,4.105c0,1.664,1.305,2.962,2.459,4.106c0.754,0.75,1.468,1.458,1.76,2.162
			c0.313,0.754,0.315,1.845,0.317,2.897c0.004,1.67,0.008,3.396,1.132,4.519c1.123,1.124,2.85,1.128,4.519,1.131
			c1.054,0.003,2.143,0.006,2.897,0.318c0.704,0.292,1.412,1.005,2.163,1.761c1.146,1.152,2.442,2.459,4.105,2.459
			s2.961-1.307,4.105-2.459c0.749-0.756,1.459-1.469,2.162-1.761c0.754-0.312,1.844-0.315,2.897-0.318
			c1.669-0.003,3.396-0.007,4.52-1.131l-27.369-27.37c-1.124,1.125-1.128,2.851-1.132,4.52
			C197.792-267.88,197.791-266.79,197.477-266.035z"/>
	</g>
	<g id="XMLID_567_">
		<circle id="XMLID_568_" fill="#FFFFFF" cx="212.611" cy="-259.767" r="12.715"/>
	</g>
	<g id="XMLID_565_">
		<path id="XMLID_566_" opacity="0.25" fill="#ED1B68" d="M220.008-252.43l-14.734-14.735c-1.903,1.888-3.084,4.505-3.084,7.397
			c0,5.756,4.665,10.421,10.421,10.421C215.502-249.347,218.12-250.526,220.008-252.43z"/>
	</g>
	<g id="XMLID_563_">
		<path id="XMLID_564_" fill="#FFC907" d="M203.651-268.787c-2.317,2.304-3.754,5.493-3.754,9.02
			c0,7.022,5.692,12.715,12.714,12.715c3.526,0,6.717-1.438,9.02-3.756L203.651-268.787z"/>
	</g>
	<g id="XMLID_561_">
		<circle id="XMLID_562_" fill="#FFC907" cx="212.611" cy="-259.768" r="10.421"/>
	</g>
	<g id="XMLID_559_">
		<path id="XMLID_560_" opacity="0.25" fill="#ED1B68" d="M205.274-267.165c-1.903,1.888-3.084,4.505-3.084,7.397
			c0,5.756,4.665,10.421,10.421,10.421c2.894,0,5.509-1.18,7.397-3.083L205.274-267.165z"/>
	</g>
	<g id="XMLID_557_">
		<circle id="XMLID_558_" fill="#FFFFFF" cx="216.364" cy="-263.52" r="2.977"/>
	</g>
</g>
<g id="XMLID_541_">
	<path id="XMLID_555_" fill="#B02A24" d="M232.386-677.841l-19.775-15.243l-19.776,15.243c-1.021,0.786-2.473,0.666-3.348-0.278l0,0
		c-0.992-1.069-0.858-2.759,0.292-3.658l21.136-16.537l1.696-1.575l1.695,1.575l21.138,16.537c1.148,0.899,1.284,2.589,0.289,3.658
		l0,0C234.858-677.175,233.407-677.055,232.386-677.841z"/>
	<path id="XMLID_554_" fill="#B21E51" d="M232.386-677.841l-19.775-15.243l-19.776,15.243c-1.021,0.786-2.473,0.666-3.348-0.278l0,0
		c-0.992-1.069-0.858-2.759,0.292-3.658l21.136-16.537l1.696-1.575l1.695,1.575l21.138,16.537c1.148,0.899,1.284,2.589,0.289,3.658
		l0,0C234.858-677.175,233.407-677.055,232.386-677.841z"/>
	<path id="XMLID_549_" fill="#FFC907" d="M212.611-693.084l-19.117,14.735v0.068v24.936h38.232v-24.936v-0.068L212.611-693.084z
		 M210.117-659.163h-9.975v-8.311h9.975V-659.163z M210.117-672.462h-9.975v-6.648h9.975V-672.462z M225.079-672.462h-9.976v-6.648
		h9.976V-672.462z"/>
	<rect id="XMLID_548_" x="215.103" y="-667.474" fill="#FFFFFF" width="9.976" height="14.129"/>
	<rect id="XMLID_547_" x="215.103" y="-679.11" fill="#FFC907" width="9.976" height="4.986"/>
	<rect id="XMLID_546_" x="200.142" y="-679.11" fill="#FFC907" width="9.975" height="2.298"/>
	<polygon id="XMLID_545_" fill="#FFC907" points="205.961,-664.149 205.961,-667.474 204.299,-667.474 204.299,-664.149 
		200.142,-664.149 200.142,-662.487 204.299,-662.487 204.299,-659.163 205.961,-659.163 205.961,-662.487 210.117,-662.487 
		210.117,-664.149 	"/>
	<rect id="XMLID_544_" x="215.103" y="-679.11" opacity="0.25" fill="#ED1B68" width="9.976" height="4.986"/>
	<rect id="XMLID_543_" x="200.142" y="-679.11" opacity="0.25" fill="#ED1B68" width="9.975" height="2.298"/>
	<polygon id="XMLID_542_" opacity="0.25" fill="#ED1B68" points="205.961,-664.149 205.961,-667.474 204.299,-667.474 
		204.299,-664.149 200.142,-664.149 200.142,-662.487 204.299,-662.487 204.299,-659.163 205.961,-659.163 205.961,-662.487 
		210.117,-662.487 210.117,-664.149 	"/>
</g>
<g id="XMLID_530_">
	<g id="XMLID_539_">
		<polyline id="XMLID_540_" fill="#FFC907" points="211.496,-200.273 233.055,-200.273 227.108,-186.892 233.055,-173.51 
			214.469,-173.51 		"/>
	</g>
	<g id="XMLID_537_" opacity="0.25">
		<polyline id="XMLID_538_" fill="#ED1B68" points="211.496,-200.273 233.055,-200.273 227.108,-186.892 233.055,-173.51 
			214.469,-173.51 		"/>
	</g>
	<g id="XMLID_535_">
		<path id="XMLID_536_" fill="#B21E51" d="M193.654-152.694L193.654-152.694c-0.821,0-1.487-0.665-1.487-1.486v-43.862
			c0-0.821,0.666-1.486,1.487-1.486l0,0c0.821,0,1.487,0.665,1.487,1.486v43.862C195.141-153.359,194.475-152.694,193.654-152.694z"
			/>
	</g>
	<g id="XMLID_533_">
		<path id="XMLID_534_" fill="#FFC907" d="M214.469-197.3h-19.328v26.764h17.842c0.821,0,1.486-0.665,1.486-1.487V-197.3z"/>
	</g>
	<g id="XMLID_531_">
		<polygon id="XMLID_532_" fill="#FFFFFF" points="211.496,-197.3 214.469,-197.3 211.496,-200.273 		"/>
	</g>
</g>
<g id="XMLID_520_">
	<path id="XMLID_529_" fill="#FFC907" d="M198.22-90.668h36.613c0.864,0,1.567,0.7,1.567,1.565v24.083
		c0,0.865-0.703,1.566-1.567,1.566v3.916l-8.614-3.916H198.22c-0.866,0-1.566-0.701-1.566-1.566v-24.083
		C196.654-89.968,197.354-90.668,198.22-90.668z"/>
	<path id="XMLID_528_" opacity="0.25" fill="#ED1B68" d="M198.22-90.668h36.613c0.864,0,1.567,0.7,1.567,1.565v24.083
		c0,0.865-0.703,1.566-1.567,1.566v3.916l-8.614-3.916H198.22c-0.866,0-1.566-0.701-1.566-1.566v-24.083
		C196.654-89.968,197.354-90.668,198.22-90.668z"/>
	<path id="XMLID_527_" fill="#FFC907" d="M227.001-85.187h-36.613c-0.866,0-1.566,0.701-1.566,1.566v24.083
		c0,0.865,0.7,1.567,1.566,1.567v3.915l8.614-3.915h27.999c0.864,0,1.567-0.702,1.567-1.567V-83.62
		C228.569-84.485,227.866-85.187,227.001-85.187z"/>
	<g id="XMLID_525_">
		<path id="XMLID_526_" fill="#FFFFFF" d="M222.157-76.669h-26.923c-0.649,0-1.175-0.526-1.175-1.176
			c0-0.647,0.525-1.175,1.175-1.175h26.923c0.648,0,1.175,0.527,1.175,1.175C223.332-77.195,222.805-76.669,222.157-76.669z"/>
	</g>
	<g id="XMLID_523_">
		<path id="XMLID_524_" fill="#FFFFFF" d="M222.157-70.404h-26.923c-0.649,0-1.175-0.525-1.175-1.174s0.525-1.175,1.175-1.175
			h26.923c0.648,0,1.175,0.526,1.175,1.175S222.805-70.404,222.157-70.404z"/>
	</g>
	<g id="XMLID_521_">
		<path id="XMLID_522_" fill="#FFFFFF" d="M214.325-64.138h-19.091c-0.649,0-1.175-0.526-1.175-1.176
			c0-0.647,0.525-1.175,1.175-1.175h19.091c0.648,0,1.175,0.527,1.175,1.175C215.5-64.664,214.973-64.138,214.325-64.138z"/>
	</g>
</g>
<g id="XMLID_507_">
	<path id="XMLID_517_" fill="#FFC907" d="M233.376,28.535c-0.927-0.922-1.805-1.794-2.163-2.658
		c-0.385-0.928-0.389-2.267-0.391-3.562c-0.006-2.053-0.009-4.174-1.39-5.554c-1.381-1.382-3.504-1.387-5.556-1.392
		c-1.295-0.002-2.634-0.006-3.561-0.391c-0.866-0.358-1.738-1.235-2.66-2.164c-1.406-1.418-3.001-3.022-5.046-3.022
		c-2.044,0-3.639,1.604-5.048,3.022c-0.922,0.929-1.791,1.806-2.657,2.164c-0.928,0.386-2.266,0.389-3.563,0.391
		c-2.05,0.005-4.172,0.01-5.553,1.391s-1.385,3.502-1.391,5.553c-0.004,1.297-0.006,2.636-0.391,3.563
		c-0.36,0.865-1.235,1.735-2.165,2.659c-1.416,1.406-3.021,3.001-3.021,5.045c0,2.046,1.605,3.642,3.021,5.049
		c0.93,0.922,1.807,1.792,2.165,2.657c0.385,0.928,0.387,2.267,0.391,3.562c0.006,2.053,0.01,4.175,1.391,5.555
		c1.381,1.382,3.501,1.387,5.555,1.391c1.296,0.003,2.634,0.006,3.562,0.391c0.864,0.359,1.735,1.235,2.657,2.164
		c1.409,1.416,3.004,3.022,5.048,3.022c2.045,0,3.64-1.606,5.046-3.022c0.922-0.929,1.794-1.805,2.658-2.164
		c0.928-0.385,2.268-0.388,3.561-0.391c2.054-0.004,4.177-0.009,5.558-1.391c1.381-1.38,1.384-3.502,1.39-5.555
		c0.002-1.295,0.006-2.634,0.391-3.562c0.358-0.865,1.236-1.735,2.163-2.657c1.418-1.407,3.024-3.003,3.024-5.049
		C236.401,31.537,234.792,29.941,233.376,28.535z M212.611,38.973c-2.978,0-5.392-2.413-5.392-5.391
		c0-2.979,2.414-5.393,5.392-5.393s5.392,2.414,5.392,5.393C218.002,36.56,215.588,38.973,212.611,38.973z"/>
	<path id="XMLID_516_" opacity="0.25" fill="#ED1B68" d="M216.423,37.395c-0.977,0.976-2.323,1.578-3.812,1.578
		c-2.978,0-5.392-2.413-5.392-5.391c0-1.489,0.603-2.838,1.578-3.813L195.79,16.76c-1.381,1.381-1.385,3.502-1.391,5.553
		c-0.004,1.297-0.006,2.636-0.391,3.563c-0.36,0.865-1.235,1.737-2.165,2.659c-1.416,1.406-3.021,3.002-3.021,5.047
		s1.605,3.64,3.021,5.047c0.93,0.922,1.807,1.792,2.165,2.657c0.385,0.928,0.387,2.267,0.391,3.562
		c0.006,2.053,0.01,4.175,1.391,5.555c1.381,1.382,3.501,1.387,5.555,1.391c1.296,0.003,2.634,0.006,3.562,0.391
		c0.864,0.359,1.735,1.236,2.657,2.164c1.409,1.418,3.004,3.022,5.048,3.022c2.045,0,3.64-1.604,5.046-3.022
		c0.922-0.928,1.794-1.805,2.658-2.164c0.928-0.385,2.268-0.388,3.561-0.391c2.054-0.004,4.177-0.009,5.558-1.391L216.423,37.395z"
		/>
	<path id="XMLID_513_" fill="#ED1B68" d="M212.611,17.952c-8.631,0-15.628,6.997-15.628,15.63c0,8.632,6.997,15.628,15.628,15.628
		c8.632,0,15.629-6.996,15.629-15.628C228.24,24.949,221.243,17.952,212.611,17.952z M212.611,38.973
		c-2.978,0-5.392-2.413-5.392-5.391c0-2.979,2.414-5.393,5.392-5.393s5.392,2.414,5.392,5.393
		C218.002,36.56,215.588,38.973,212.611,38.973z"/>
	<path id="XMLID_512_" fill="#B21E51" d="M216.46,37.355c-0.979,0.998-2.342,1.617-3.85,1.617c-2.978,0-5.392-2.413-5.392-5.391
		c0-1.509,0.619-2.87,1.617-3.849l-7.237-7.239c-2.851,2.832-4.616,6.752-4.616,11.088c0,8.631,6.997,15.628,15.628,15.628
		c4.334,0,8.256-1.766,11.087-4.616L216.46,37.355z"/>
	<path id="XMLID_509_" fill="#FFC907" d="M212.611,20.771c-7.075,0-12.809,5.735-12.809,12.811c0,7.074,5.733,12.81,12.809,12.81
		c7.074,0,12.81-5.735,12.81-12.81C225.42,26.507,219.685,20.771,212.611,20.771z M212.611,38.973c-2.978,0-5.392-2.413-5.392-5.391
		c0-2.979,2.414-5.393,5.392-5.393s5.392,2.414,5.392,5.393C218.002,36.56,215.588,38.973,212.611,38.973z"/>
	<path id="XMLID_508_" opacity="0.25" fill="#ED1B68" d="M216.46,37.355c-0.979,0.998-2.342,1.617-3.85,1.617
		c-2.978,0-5.392-2.413-5.392-5.391c0-1.509,0.619-2.87,1.617-3.849l-5.245-5.245c-2.34,2.32-3.789,5.537-3.789,9.094
		c0,7.074,5.733,12.81,12.809,12.81c3.556,0,6.772-1.452,9.094-3.792L216.46,37.355z"/>
</g>
<g id="XMLID_497_">
	<g id="XMLID_504_">
		<path id="XMLID_506_" fill="#FFC907" d="M196.063-614.002l39.163,1.136c0.716,0.021,1.256,0.656,1.163,1.366l-4.271,20.17
			c-0.078,0.604-0.591,1.054-1.199,1.054h-34.893c-0.669,0-1.21-0.542-1.21-1.211v-21.305
			C194.817-613.474,195.38-614.021,196.063-614.002z"/>
		<path id="XMLID_505_" opacity="0.25" fill="#ED1B68" d="M196.027-590.276h32.038l-27.931-23.606l-4.071-0.119
			c-0.683-0.02-1.246,0.528-1.246,1.21v21.305C194.817-590.818,195.358-590.276,196.027-590.276z"/>
	</g>
	<g id="XMLID_502_">
		<polygon id="XMLID_503_" fill="#ED1B68" points="230.627,-582.997 193.46,-582.997 193.46,-616.676 195.88,-616.676 
			195.88,-585.417 230.627,-585.417 		"/>
	</g>
	<circle id="XMLID_501_" fill="#ED1B68" cx="192.351" cy="-616.676" r="3.529"/>
	<polygon id="XMLID_500_" fill="#B21E51" points="195.88,-588.373 193.46,-590.794 193.46,-582.997 230.627,-582.997 
		230.627,-585.417 195.88,-586.368 	"/>
	<circle id="XMLID_499_" fill="#FFFFFF" cx="195.879" cy="-580.375" r="5.041"/>
	<circle id="XMLID_498_" fill="#FFFFFF" cx="230.629" cy="-580.375" r="5.042"/>
</g>
<g>
	<path fill="#FFC907" d="M47.706-593.971H20.392c-0.445,0-0.804-0.359-0.804-0.804v-10.38c0-7.972,6.487-14.46,14.461-14.46
		c7.973,0,14.461,6.488,14.461,14.46v10.38C48.51-594.33,48.15-593.971,47.706-593.971"/>
	<g opacity="0.25">
		<g>
			<defs>
				<rect id="SVGID_1_" x="19.587" y="-619.614" width="14.464" height="25.643"/>
			</defs>
			<clipPath id="SVGID_2_">
				<use xlink:href="#SVGID_1_"  overflow="visible"/>
			</clipPath>
			<path clip-path="url(#SVGID_2_)" fill="#ED1B68" d="M34.052-593.971h-13.66c-0.444,0-0.804-0.359-0.804-0.804v-10.38
				c0-7.972,6.487-14.46,14.461-14.46h0.003V-593.971z"/>
		</g>
	</g>
	<path fill="#B21E51" d="M19.592-596.381c-0.885,0-1.607,0.723-1.607,1.606c0,0.884,0.722,1.607,1.607,1.607h28.921
		c0.884,0,1.606-0.723,1.606-1.607c0-0.883-0.722-1.606-1.606-1.606H19.592z"/>
	<path fill="#FFFFFF" d="M36.134-612.765c0,1.149-0.933,2.082-2.082,2.082s-2.081-0.933-2.081-2.082s0.932-2.082,2.081-2.082
		S36.134-613.914,36.134-612.765"/>
	<path fill="#FFFFFF" d="M36.134-605.66c0,1.149-0.933,2.081-2.082,2.081s-2.081-0.932-2.081-2.081s0.932-2.082,2.081-2.082
		S36.134-606.809,36.134-605.66"/>
	<path fill="#FFC907" d="M46.603-630.614c0,6.933-5.62,12.554-12.554,12.554c-6.933,0-12.553-5.621-12.553-12.554
		c0-6.934,5.62-12.555,12.553-12.555C40.982-643.169,46.603-637.548,46.603-630.614"/>
	<g opacity="0.25">
		<g>
			<defs>
				<rect id="SVGID_3_" x="21.496" y="-643.168" width="12.553" height="25.108"/>
			</defs>
			<clipPath id="SVGID_4_">
				<use xlink:href="#SVGID_3_"  overflow="visible"/>
			</clipPath>
			<path clip-path="url(#SVGID_4_)" fill="#ED1B68" d="M21.495-630.614c0,6.933,5.62,12.554,12.554,12.554v-25.109
				C27.115-643.169,21.495-637.548,21.495-630.614"/>
		</g>
	</g>
	<path fill="#B21E51" d="M31.818-632.049c0,1.117-0.906,2.022-2.023,2.022c-1.118,0-2.024-0.905-2.024-2.022
		c0-1.118,0.906-2.023,2.024-2.023C30.913-634.072,31.818-633.167,31.818-632.049"/>
	<path fill="#B21E51" d="M39.992-632.049c0,1.117-0.905,2.022-2.023,2.022s-2.023-0.905-2.023-2.022
		c0-1.118,0.905-2.023,2.023-2.023S39.992-633.167,39.992-632.049"/>
	<path fill="#B21E51" d="M28.767-626.629c0.795,0.563,1.652,0.851,2.509,1.064c0.868,0.183,1.747,0.282,2.643,0.28
		c0.895,0.021,1.784-0.037,2.641-0.218c0.857-0.189,1.706-0.484,2.438-1.126c-0.307,0.96-1.21,1.661-2.136,2.046
		c-0.942,0.417-1.965,0.54-2.959,0.543c-0.995-0.022-2.011-0.192-2.941-0.607C30.048-625.062,29.171-625.712,28.767-626.629"/>
	<path fill="#FFC907" d="M19.43-616.545c4.288-1.64,7.338-5.782,7.338-10.646c0-6.3-5.106-11.407-11.406-11.407
		c-6.3,0-11.407,5.107-11.407,11.407c0,4.864,3.051,9.006,7.339,10.646c-5.259,1.717-9.071,6.662-9.071,12.486v9.431
		c0,0.403,0.326,0.73,0.73,0.73h24.818c0.404,0,0.73-0.327,0.73-0.73v-9.431C28.5-609.883,24.688-614.827,19.43-616.545"/>
	<g opacity="0.25">
		<g>
			<defs>
				<rect id="SVGID_5_" x="2.223" y="-638.598" width="26.278" height="44.701"/>
			</defs>
			<clipPath id="SVGID_6_">
				<use xlink:href="#SVGID_5_"  overflow="visible"/>
			</clipPath>
			<path clip-path="url(#SVGID_6_)" fill="#ED1B68" d="M19.43-616.545c4.288-1.64,7.338-5.782,7.338-10.646
				c0-6.3-5.106-11.407-11.406-11.407c-6.3,0-11.407,5.107-11.407,11.407c0,4.864,3.051,9.006,7.339,10.646
				c-5.259,1.717-9.071,6.662-9.071,12.486v9.431c0,0.403,0.326,0.73,0.73,0.73h24.818c0.404,0,0.73-0.327,0.73-0.73v-9.431
				C28.5-609.883,24.688-614.827,19.43-616.545"/>
		</g>
	</g>
	<path fill="#FFFFFF" d="M17.256-610.974c0,1.044-0.847,1.892-1.892,1.892c-1.044,0-1.891-0.848-1.891-1.892
		s0.847-1.892,1.891-1.892C16.409-612.866,17.256-612.018,17.256-610.974"/>
	<path fill="#FFFFFF" d="M17.256-604.518c0,1.044-0.847,1.891-1.892,1.891c-1.044,0-1.891-0.847-1.891-1.891
		s0.847-1.892,1.891-1.892C16.409-606.41,17.256-605.562,17.256-604.518"/>
	<path fill="#B21E51" d="M13.335-628.496c0,1.015-0.823,1.838-1.838,1.838c-1.016,0-1.839-0.823-1.839-1.838
		c0-1.016,0.823-1.838,1.839-1.838C12.512-630.333,13.335-629.512,13.335-628.496"/>
	<path fill="#B21E51" d="M20.762-628.496c0,1.015-0.823,1.838-1.838,1.838c-1.016,0-1.838-0.823-1.838-1.838
		c0-1.016,0.822-1.838,1.838-1.838C19.938-630.333,20.762-629.512,20.762-628.496"/>
	<path fill="#B21E51" d="M10.562-623.571c0.74,0.496,1.518,0.74,2.294,0.925c0.786,0.156,1.579,0.242,2.388,0.239
		c0.808,0.02,1.61-0.03,2.385-0.183c0.775-0.163,1.544-0.413,2.229-0.981c-0.26,0.887-1.083,1.542-1.927,1.901
		c-0.86,0.39-1.795,0.504-2.702,0.508c-0.91-0.021-1.839-0.179-2.687-0.566C11.71-622.114,10.912-622.722,10.562-623.571"/>
	<path fill="#FFC907" d="M47.706-593.971H20.392c-0.445,0-0.804-0.359-0.804-0.804v-10.38c0-7.972,6.487-14.46,14.461-14.46
		c7.973,0,14.461,6.488,14.461,14.46v10.38C48.51-594.33,48.15-593.971,47.706-593.971"/>
	<path fill="#B21E51" d="M1.49-596.381c-0.885,0-1.607,0.723-1.607,1.606c0,0.884,0.722,1.607,1.607,1.607h47.023
		c0.884,0,1.606-0.723,1.606-1.607c0-0.883-0.722-1.606-1.606-1.606H1.49z"/>
	<path fill="#FFFFFF" d="M36.134-612.765c0,1.149-0.933,2.082-2.082,2.082s-2.081-0.933-2.081-2.082s0.932-2.082,2.081-2.082
		S36.134-613.914,36.134-612.765"/>
	<path fill="#FFFFFF" d="M36.134-605.66c0,1.149-0.933,2.081-2.082,2.081s-2.081-0.932-2.081-2.081s0.932-2.082,2.081-2.082
		S36.134-606.809,36.134-605.66"/>
	<path fill="#FFC907" d="M46.603-630.614c0,6.933-5.62,12.554-12.554,12.554c-6.933,0-12.553-5.621-12.553-12.554
		c0-6.934,5.62-12.555,12.553-12.555C40.982-643.169,46.603-637.548,46.603-630.614"/>
	<path fill="#B21E51" d="M31.818-632.049c0,1.117-0.906,2.022-2.023,2.022c-1.118,0-2.024-0.905-2.024-2.022
		c0-1.118,0.906-2.023,2.024-2.023C30.913-634.072,31.818-633.167,31.818-632.049"/>
	<path fill="#B21E51" d="M39.992-632.049c0,1.117-0.905,2.022-2.023,2.022s-2.023-0.905-2.023-2.022
		c0-1.118,0.905-2.023,2.023-2.023S39.992-633.167,39.992-632.049"/>
	<path fill="#B21E51" d="M28.767-626.629c0.795,0.563,1.652,0.851,2.509,1.064c0.868,0.183,1.747,0.282,2.643,0.28
		c0.895,0.021,1.784-0.037,2.641-0.218c0.857-0.189,1.706-0.484,2.438-1.126c-0.307,0.96-1.21,1.661-2.136,2.046
		c-0.942,0.417-1.965,0.54-2.959,0.543c-0.995-0.022-2.011-0.192-2.941-0.607C30.048-625.062,29.171-625.712,28.767-626.629"/>
</g>
<g>
	<polygon fill="#FFC907" points="5.397,-254.883 13.684,-256.232 13.684,-241.338 5.397,-241.338 	"/>
	<g opacity="0.25">
		<g>
			<defs>
				<rect id="SVGID_7_" x="5.396" y="-256.232" width="8.288" height="14.895"/>
			</defs>
			<clipPath id="SVGID_8_">
				<use xlink:href="#SVGID_7_"  overflow="visible"/>
			</clipPath>
			<polygon clip-path="url(#SVGID_8_)" fill="#ED1B68" points="5.397,-254.883 13.684,-256.232 13.684,-241.338 5.397,-241.338 			
				"/>
		</g>
	</g>
	<rect x="26.737" y="-270.182" fill="#FFC907" width="8.287" height="28.844"/>
	<rect x="16.067" y="-263.52" fill="#FFC907" width="8.287" height="22.182"/>
	<g opacity="0.25">
		<g>
			<defs>
				<rect id="SVGID_9_" x="16.067" y="-263.52" width="8.287" height="22.182"/>
			</defs>
			<clipPath id="SVGID_10_">
				<use xlink:href="#SVGID_9_"  overflow="visible"/>
			</clipPath>
			<rect x="16.067" y="-263.52" clip-path="url(#SVGID_10_)" fill="#ED1B68" width="8.287" height="22.182"/>
		</g>
	</g>
	<rect x="37.409" y="-277.094" fill="#FFC907" width="8.287" height="35.756"/>
	<path fill="#FFFFFF" d="M2.556-245.73c-0.271,0-0.526-0.164-0.629-0.432c-0.135-0.348,0.039-0.738,0.386-0.871l45.188-17.426
		c0.344-0.135,0.738,0.039,0.871,0.387c0.134,0.348-0.039,0.738-0.387,0.871L2.798-245.775C2.719-245.744,2.637-245.73,2.556-245.73
		"/>
	<polygon fill="#FFFFFF" points="47.889,-262.084 50,-264.701 46.679,-265.223 	"/>
	<polygon fill="#ED1B68" points="49.994,-237.908 0,-237.908 0,-280.256 3.432,-280.256 3.432,-241.338 49.994,-241.338 	"/>
	<polygon fill="#B21E51" points="3.432,-245.529 0,-248.961 0,-237.908 49.994,-237.908 49.994,-241.338 3.432,-241.338 	"/>
</g>
<g>
	<path fill="#FFC907" d="M48.031,0H1.971c-1.088,0-1.97,0.883-1.97,1.971v30.297c0,1.088,0.882,1.971,1.97,1.971h46.06
		c1.087,0,1.97-0.883,1.97-1.971V1.971C50.001,0.883,49.118,0,48.031,0"/>
	<g opacity="0.25">
		<g>
			<defs>
				<rect id="SVGID_11_" x="0" y="1.971" width="50" height="32.268"/>
			</defs>
			<clipPath id="SVGID_12_">
				<use xlink:href="#SVGID_11_"  overflow="visible"/>
			</clipPath>
			<path clip-path="url(#SVGID_12_)" fill="#ED1B68" d="M1.971,34.238h46.06c1.086,0,1.969-0.883,1.969-1.971V1.971L25,21.309
				L0,1.971v30.297C0,33.355,0.883,34.238,1.971,34.238"/>
		</g>
	</g>
	<path fill="#FFFFFF" d="M25,22.822L50,3.484V1.971c0-0.42-0.135-0.809-0.36-1.129c-0.13,0.041-0.258,0.094-0.372,0.184L25,19.795
		L0.732,1.025C0.619,0.936,0.491,0.883,0.36,0.842C0.135,1.162,0,1.551,0,1.971v1.514L25,22.822z"/>
</g>
</svg>
