<?xml version="1.0" encoding="utf-8"?>
<!-- Generator: Adobe Illustrator 16.0.0, SVG Export Plug-In . SVG Version: 6.00 Build 0)  -->
<!DOCTYPE svg PUBLIC "-//W3C//DTD SVG 1.1//EN" "http://www.w3.org/Graphics/SVG/1.1/DTD/svg11.dtd">
<svg version="1.1" id="Layer_1" xmlns="http://www.w3.org/2000/svg" xmlns:xlink="http://www.w3.org/1999/xlink" x="0px" y="0px"
	 width="68.75px" height="83.5px" viewBox="29 10.667 68.75 83.5" enable-background="new 29 10.667 68.75 83.5"
	 xml:space="preserve">
<g id="XMLID_3054_">
	<circle id="XMLID_3065_" fill="#FFFFFF" cx="74.421" cy="86.44" r="7.377"/>
	<g id="XMLID_3063_">
		<path id="XMLID_3064_" fill="#FFC800" d="M92.155,79.856H34.58c-0.937,0-1.693-0.758-1.693-1.693V56.284
			c0-16.809,13.675-30.481,30.481-30.481s30.48,13.673,30.48,30.481v21.879C93.849,79.098,93.092,79.856,92.155,79.856z"/>
	</g>
	<g id="XMLID_3061_">
		
			<path id="XMLID_3062_" fill="none" stroke="#646464" stroke-width="0.2556" stroke-linecap="round" stroke-linejoin="round" stroke-miterlimit="10" d="
			M36.275,47.644"/>
	</g>
	<g id="XMLID_3059_" opacity="0.25">
		<path id="XMLID_3060_" fill="#FF0066" d="M63.374,79.856H34.58c-0.937,0-1.693-0.758-1.693-1.693V56.284
			c0-16.809,13.675-30.481,30.481-30.481c0.001,0,0.004,0,0.006,0V79.856z"/>
	</g>
	<g id="XMLID_3057_">
		<path id="XMLID_3058_" fill="#B20B4F" d="M32.894,74.776c-1.863,0-3.387,1.523-3.387,3.387l0,0c0,1.863,1.523,3.387,3.387,3.387
			h60.963c1.861,0,3.387-1.523,3.387-3.387l0,0c0-1.863-1.525-3.387-3.387-3.387H32.894z"/>
	</g>
	<circle id="XMLID_3056_" fill="#FFC800" cx="63.368" cy="20.048" r="9.032"/>
	<path id="XMLID_3055_" opacity="0.25" fill="#FF0066" d="M54.336,20.048c0,4.987,4.044,9.03,9.032,9.03V11.016
		C58.38,11.016,54.336,15.059,54.336,20.048z"/>
</g>
</svg>
