<?xml version="1.0" encoding="utf-8"?>
<!-- Generator: Adobe Illustrator 18.0.0, SVG Export Plug-In . SVG Version: 6.00 Build 0)  -->
<!DOCTYPE svg PUBLIC "-//W3C//DTD SVG 1.1//EN" "http://www.w3.org/Graphics/SVG/1.1/DTD/svg11.dtd">
<svg version="1.1" id="Layer_1" xmlns="http://www.w3.org/2000/svg" xmlns:xlink="http://www.w3.org/1999/xlink" x="0px" y="0px"
	 viewBox="0 0 78 50" enable-background="new 0 0 78 50" xml:space="preserve">
<g>
	<g>
		<g id="XMLID_2877_">
			
				<path id="XMLID_2878_" fill="none" stroke="#656565" stroke-width="0.2008" stroke-linecap="round" stroke-linejoin="round" stroke-miterlimit="10" d="
				M54.1,35.8"/>
		</g>
		<path fill="#FFC907" d="M75.3,45.8L75.3,45.8l0-6.8c0-5-3.3-9.2-7.8-10.7c3.7-1.4,6.3-5,6.3-9.1c0-5.4-4.4-9.8-9.8-9.8
			c-5.4,0-9.8,4.4-9.8,9.8c0,4.2,2.6,7.7,6.3,9.1c-4.5,1.5-7.8,5.7-7.8,10.7v6.8c-0.7,0-1.2,0.6-1.2,1.2c0,0.7,0.6,1.3,1.3,1.3h22.5
			c0.7,0,1.3-0.6,1.3-1.3S76,45.8,75.3,45.8z"/>
		<g opacity="0.75">
			<path fill="#FFFFFF" d="M64.1,10.3c4.9,0,8.9,4,8.9,8.9c0,3.6-2.3,7-5.7,8.3l-2.4,0.9l2.4,0.8c4.3,1.4,7.2,5.4,7.2,9.8v6.8l0,0.9
				h0.9c0.2,0,0.4,0.2,0.4,0.4s-0.2,0.4-0.4,0.4H52.8c-0.2,0-0.4-0.2-0.4-0.4c0-0.2,0.2-0.4,0.4-0.4l0.9,0v-0.9v-6.8
				c0-4.5,2.9-8.4,7.2-9.8l2.4-0.8l-2.4-0.9c-3.4-1.3-5.7-4.6-5.7-8.3C55.2,14.2,59.2,10.3,64.1,10.3 M64.1,9.4
				c-5.4,0-9.8,4.4-9.8,9.8c0,4.2,2.6,7.7,6.3,9.1c-4.5,1.5-7.8,5.7-7.8,10.7v6.8c-0.7,0-1.2,0.6-1.2,1.2c0,0.7,0.6,1.3,1.3,1.3
				h22.5c0.7,0,1.3-0.6,1.3-1.3s-0.6-1.3-1.3-1.3h0v-6.8c0-5-3.3-9.2-7.8-10.7c3.7-1.4,6.3-5,6.3-9.1C73.8,13.7,69.5,9.4,64.1,9.4
				L64.1,9.4z"/>
		</g>
		<circle id="XMLID_2876_" opacity="0.75" fill="#FFFFFF" cx="64.1" cy="35" r="1.6"/>
		<circle id="XMLID_2875_" opacity="0.75" fill="#FFFFFF" cx="64.1" cy="40.6" r="1.6"/>
		<g opacity="0.25">
			<circle id="XMLID_2874_" fill="#ED1B68" cx="60.7" cy="18" r="1.6"/>
			<circle id="XMLID_2873_" fill="#ED1B68" cx="67.1" cy="18" r="1.6"/>
			<path id="XMLID_2872_" fill="#ED1B68" d="M59.9,22.2c0.6,0.4,1.3,0.7,2,0.8c0.7,0.1,1.4,0.2,2.1,0.2c0.7,0,1.4,0,2.1-0.2
				c0.7-0.1,1.3-0.4,1.9-0.9c-0.2,0.7-0.9,1.3-1.7,1.6c-0.7,0.3-1.5,0.4-2.3,0.4c-0.8,0-1.6-0.2-2.3-0.5
				C60.9,23.5,60.3,23,59.9,22.2z"/>
		</g>
		<g>
			<g>
				<path fill="#FFC907" d="M64.1,9.4c5.4,0,9.8,4.4,9.8,9.8c0,4.2-2.6,7.7-6.3,9.1c4.5,1.5,7.8,5.7,7.8,10.7v6.8h0
					c0.7,0,1.3,0.6,1.3,1.3s-0.6,1.3-1.3,1.3H52.8c-0.7,0-1.3-0.6-1.3-1.3c0-0.7,0.6-1.2,1.2-1.2v-6.8c0-5,3.3-9.2,7.8-10.7
					c-3.7-1.4-6.3-5-6.3-9.1C54.3,13.7,58.7,9.4,64.1,9.4 M64.1,7.8c-6.2,0-11.3,5.1-11.3,11.3c0,3.6,1.7,6.9,4.5,9
					c-3.7,2.3-6,6.3-6,10.8v5.7C50.5,45.2,50,46.1,50,47c0,1.5,1.3,2.8,2.8,2.8h22.5c1.5,0,2.8-1.3,2.8-2.8c0-1-0.5-1.8-1.3-2.3
					v-5.7c0-4.5-2.3-8.5-6-10.8c2.8-2.1,4.5-5.4,4.5-9C75.4,12.9,70.3,7.8,64.1,7.8L64.1,7.8z"/>
			</g>
			<g opacity="0.25">
				<path fill="#ED1B68" d="M64.1,9.4c5.4,0,9.8,4.4,9.8,9.8c0,4.2-2.6,7.7-6.3,9.1c4.5,1.5,7.8,5.7,7.8,10.7v6.8h0
					c0.7,0,1.3,0.6,1.3,1.3s-0.6,1.3-1.3,1.3H52.8c-0.7,0-1.3-0.6-1.3-1.3c0-0.7,0.6-1.2,1.2-1.2v-6.8c0-5,3.3-9.2,7.8-10.7
					c-3.7-1.4-6.3-5-6.3-9.1C54.3,13.7,58.7,9.4,64.1,9.4 M64.1,7.8c-6.2,0-11.3,5.1-11.3,11.3c0,3.6,1.7,6.9,4.5,9
					c-3.7,2.3-6,6.3-6,10.8v5.7C50.5,45.2,50,46.1,50,47c0,1.5,1.3,2.8,2.8,2.8h22.5c1.5,0,2.8-1.3,2.8-2.8c0-1-0.5-1.8-1.3-2.3
					v-5.7c0-4.5-2.3-8.5-6-10.8c2.8-2.1,4.5-5.4,4.5-9C75.4,12.9,70.3,7.8,64.1,7.8L64.1,7.8z"/>
			</g>
		</g>
	</g>
	<g>
		<g id="XMLID_2870_">
			
				<path id="XMLID_2871_" fill="none" stroke="#656565" stroke-width="0.2008" stroke-linecap="round" stroke-linejoin="round" stroke-miterlimit="10" d="
				M4.1,35.8"/>
		</g>
		<path fill="#FFC907" d="M25.3,45.8L25.3,45.8l0-6.8c0-5-3.3-9.2-7.8-10.7c3.7-1.4,6.3-5,6.3-9.1c0-5.4-4.4-9.8-9.8-9.8
			c-5.4,0-9.8,4.4-9.8,9.8c0,4.2,2.6,7.7,6.3,9.1C6.1,29.7,2.8,34,2.8,38.9v6.8c-0.7,0-1.2,0.6-1.2,1.2c0,0.7,0.6,1.3,1.3,1.3h22.5
			c0.7,0,1.3-0.6,1.3-1.3S26,45.8,25.3,45.8z"/>
		<g opacity="0.75">
			<path fill="#FFFFFF" d="M14.1,10.3c4.9,0,8.9,4,8.9,8.9c0,3.6-2.3,7-5.7,8.3l-2.4,0.9l2.4,0.8c4.3,1.4,7.2,5.4,7.2,9.8v6.8l0,0.9
				h0.9c0.2,0,0.4,0.2,0.4,0.4s-0.2,0.4-0.4,0.4H2.8c-0.2,0-0.4-0.2-0.4-0.4c0-0.2,0.2-0.4,0.4-0.4l0.9,0v-0.9v-6.8
				c0-4.5,2.9-8.4,7.2-9.8l2.4-0.8l-2.4-0.9c-3.4-1.3-5.7-4.6-5.7-8.3C5.2,14.2,9.2,10.3,14.1,10.3 M14.1,9.4
				c-5.4,0-9.8,4.4-9.8,9.8c0,4.2,2.6,7.7,6.3,9.1C6.1,29.7,2.8,34,2.8,38.9v6.8c-0.7,0-1.2,0.6-1.2,1.2c0,0.7,0.6,1.3,1.2,1.3h22.5
				c0.7,0,1.3-0.6,1.3-1.3s-0.6-1.3-1.3-1.3h0v-6.8c0-5-3.3-9.2-7.8-10.7c3.7-1.4,6.3-5,6.3-9.1C23.8,13.7,19.5,9.4,14.1,9.4
				L14.1,9.4z"/>
		</g>
		<circle id="XMLID_2869_" opacity="0.75" fill="#FFFFFF" cx="14.1" cy="35" r="1.6"/>
		<circle id="XMLID_2868_" opacity="0.75" fill="#FFFFFF" cx="14.1" cy="40.6" r="1.6"/>
		<g opacity="0.25">
			<circle id="XMLID_2867_" fill="#ED1B68" cx="10.7" cy="18" r="1.6"/>
			<circle id="XMLID_2866_" fill="#ED1B68" cx="17.1" cy="18" r="1.6"/>
			<path id="XMLID_2865_" fill="#ED1B68" d="M9.9,22.2c0.6,0.4,1.3,0.7,2,0.8c0.7,0.1,1.4,0.2,2.1,0.2c0.7,0,1.4,0,2.1-0.2
				c0.7-0.1,1.3-0.4,1.9-0.9c-0.2,0.7-0.9,1.3-1.7,1.6c-0.7,0.3-1.5,0.4-2.3,0.4c-0.8,0-1.6-0.2-2.3-0.5C10.9,23.5,10.3,23,9.9,22.2
				z"/>
		</g>
		<g>
			<g>
				<path fill="#FFC907" d="M14.1,9.4c5.4,0,9.8,4.4,9.8,9.8c0,4.2-2.6,7.7-6.3,9.1c4.5,1.5,7.8,5.7,7.8,10.7v6.8h0
					c0.7,0,1.3,0.6,1.3,1.3s-0.6,1.3-1.3,1.3H2.8c-0.7,0-1.3-0.6-1.3-1.3c0-0.7,0.6-1.2,1.2-1.2v-6.8c0-5,3.3-9.2,7.8-10.7
					c-3.7-1.4-6.3-5-6.3-9.1C4.3,13.7,8.7,9.4,14.1,9.4 M14.1,7.8c-6.2,0-11.3,5.1-11.3,11.3c0,3.6,1.7,6.9,4.5,9
					c-3.7,2.3-6,6.3-6,10.8v5.7C0.5,45.2,0,46.1,0,47c0,1.5,1.3,2.8,2.8,2.8h22.5c1.5,0,2.8-1.3,2.8-2.8c0-1-0.5-1.8-1.3-2.3v-5.7
					c0-4.5-2.3-8.5-6-10.8c2.8-2.1,4.5-5.4,4.5-9C25.4,12.9,20.3,7.8,14.1,7.8L14.1,7.8z"/>
			</g>
			<g opacity="0.25">
				<path fill="#ED1B68" d="M14.1,9.4c5.4,0,9.8,4.4,9.8,9.8c0,4.2-2.6,7.7-6.3,9.1c4.5,1.5,7.8,5.7,7.8,10.7v6.8h0
					c0.7,0,1.3,0.6,1.3,1.3s-0.6,1.3-1.3,1.3H2.8c-0.7,0-1.3-0.6-1.3-1.3c0-0.7,0.6-1.2,1.2-1.2v-6.8c0-5,3.3-9.2,7.8-10.7
					c-3.7-1.4-6.3-5-6.3-9.1C4.3,13.7,8.7,9.4,14.1,9.4 M14.1,7.8c-6.2,0-11.3,5.1-11.3,11.3c0,3.6,1.7,6.9,4.5,9
					c-3.7,2.3-6,6.3-6,10.8v5.7C0.5,45.2,0,46.1,0,47c0,1.5,1.3,2.8,2.8,2.8h22.5c1.5,0,2.8-1.3,2.8-2.8c0-1-0.5-1.8-1.3-2.3v-5.7
					c0-4.5-2.3-8.5-6-10.8c2.8-2.1,4.5-5.4,4.5-9C25.4,12.9,20.3,7.8,14.1,7.8L14.1,7.8z"/>
			</g>
		</g>
	</g>
	<g>
		<g id="XMLID_2863_">
			
				<path id="XMLID_2864_" fill="none" stroke="#656565" stroke-width="0.2008" stroke-linecap="round" stroke-linejoin="round" stroke-miterlimit="10" d="
				M27.2,33.2"/>
		</g>
		<path fill="#FFC907" d="M52.4,45L52.4,45l0-8.1c0-5.9-3.9-10.9-9.2-12.7c4.4-1.7,7.5-5.9,7.5-10.8c0-6.4-5.2-11.6-11.6-11.6
			S27.5,7,27.5,13.4c0,4.9,3.1,9.2,7.5,10.8c-5.3,1.7-9.2,6.8-9.2,12.7V45c-0.8,0-1.5,0.7-1.5,1.5c0,0.8,0.7,1.5,1.5,1.5h26.7
			c0.8,0,1.5-0.7,1.5-1.5C53.9,45.7,53.2,45,52.4,45z"/>
		<g opacity="0.75">
			<path fill="#FFFFFF" d="M39.1,2.7c5.9,0,10.7,4.8,10.7,10.7c0,4.4-2.8,8.4-6.9,10l-2.4,0.9l2.4,0.8c5.1,1.7,8.6,6.4,8.6,11.8V45
				l0,0.9h0.9c0.3,0,0.6,0.3,0.6,0.6c0,0.3-0.3,0.6-0.6,0.6H25.7c-0.3,0-0.6-0.3-0.6-0.6c0-0.3,0.3-0.6,0.6-0.6l0.9,0V45v-8.1
				c0-5.4,3.5-10.2,8.6-11.8l2.4-0.8l-2.4-0.9c-4.1-1.6-6.9-5.6-6.9-10C28.4,7.5,33.2,2.7,39.1,2.7 M39.1,1.8
				c-6.4,0-11.6,5.2-11.6,11.6c0,4.9,3.1,9.2,7.5,10.8c-5.3,1.7-9.2,6.8-9.2,12.7V45c-0.8,0-1.5,0.7-1.5,1.5c0,0.8,0.7,1.5,1.5,1.5
				h26.7c0.8,0,1.5-0.7,1.5-1.5c0-0.8-0.7-1.5-1.5-1.5h0v-8.1c0-5.9-3.9-10.9-9.2-12.7c4.4-1.7,7.5-5.9,7.5-10.8
				C50.6,7,45.5,1.8,39.1,1.8L39.1,1.8z"/>
		</g>
		<circle id="XMLID_1927_" opacity="0.75" fill="#FFFFFF" cx="39.1" cy="31.9" r="1.9"/>
		<circle id="XMLID_1926_" opacity="0.75" fill="#FFFFFF" cx="39.1" cy="38.5" r="1.9"/>
		<g opacity="0.25">
			<circle id="XMLID_1925_" fill="#ED1B68" cx="35.1" cy="12.1" r="1.9"/>
			<circle id="XMLID_1924_" fill="#ED1B68" cx="42.7" cy="12.1" r="1.9"/>
			<path id="XMLID_1923_" fill="#ED1B68" d="M34.2,17.1c0.7,0.5,1.5,0.8,2.3,1c0.8,0.2,1.6,0.3,2.4,0.3c0.8,0,1.6,0,2.4-0.2
				c0.8-0.2,1.6-0.4,2.3-1c-0.3,0.9-1.1,1.5-2,1.9c-0.9,0.4-1.8,0.5-2.7,0.5c-0.9,0-1.9-0.2-2.7-0.6C35.4,18.6,34.6,18,34.2,17.1z"
				/>
		</g>
		<g>
			<g>
				<path fill="#FFC907" d="M39.1,1.8c6.4,0,11.6,5.2,11.6,11.6c0,4.9-3.1,9.2-7.5,10.8c5.3,1.7,9.2,6.8,9.2,12.7V45h0
					c0.8,0,1.5,0.7,1.5,1.5c0,0.8-0.7,1.5-1.5,1.5H25.7c-0.8,0-1.5-0.7-1.5-1.5c0-0.8,0.7-1.5,1.5-1.5v-8.1c0-5.9,3.9-10.9,9.2-12.7
					c-4.4-1.7-7.5-5.9-7.5-10.8C27.5,7,32.7,1.8,39.1,1.8 M39.1,0c-7.4,0-13.4,6-13.4,13.4c0,4.2,2,8.2,5.3,10.7
					c-4.3,2.7-7.1,7.5-7.1,12.8v6.8c-0.9,0.6-1.5,1.6-1.5,2.8c0,1.8,1.5,3.3,3.3,3.3h26.7c1.8,0,3.3-1.5,3.3-3.3
					c0-1.2-0.6-2.2-1.5-2.8v-6.8c0-5.3-2.7-10.1-7.1-12.8c3.3-2.5,5.3-6.4,5.3-10.7C52.5,6,46.5,0,39.1,0L39.1,0z"/>
			</g>
			<g opacity="0.25">
				<path fill="#ED1B68" d="M39.1,1.8c6.4,0,11.6,5.2,11.6,11.6c0,4.9-3.1,9.2-7.5,10.8c5.3,1.7,9.2,6.8,9.2,12.7V45h0
					c0.8,0,1.5,0.7,1.5,1.5c0,0.8-0.7,1.5-1.5,1.5H25.7c-0.8,0-1.5-0.7-1.5-1.5c0-0.8,0.7-1.5,1.5-1.5v-8.1c0-5.9,3.9-10.9,9.2-12.7
					c-4.4-1.7-7.5-5.9-7.5-10.8C27.5,7,32.7,1.8,39.1,1.8 M39.1,0c-7.4,0-13.4,6-13.4,13.4c0,4.2,2,8.2,5.3,10.7
					c-4.3,2.7-7.1,7.5-7.1,12.8v6.8c-0.9,0.6-1.5,1.6-1.5,2.8c0,1.8,1.5,3.3,3.3,3.3h26.7c1.8,0,3.3-1.5,3.3-3.3
					c0-1.2-0.6-2.2-1.5-2.8v-6.8c0-5.3-2.7-10.1-7.1-12.8c3.3-2.5,5.3-6.4,5.3-10.7C52.5,6,46.5,0,39.1,0L39.1,0z"/>
			</g>
		</g>
	</g>
</g>
</svg>
