<?xml version="1.0" encoding="utf-8"?>
<!-- Generator: Adobe Illustrator 16.0.0, SVG Export Plug-In . SVG Version: 6.00 Build 0)  -->
<!DOCTYPE svg PUBLIC "-//W3C//DTD SVG 1.1//EN" "http://www.w3.org/Graphics/SVG/1.1/DTD/svg11.dtd">
<svg version="1.1" id="Layer_1" xmlns="http://www.w3.org/2000/svg" xmlns:xlink="http://www.w3.org/1999/xlink" x="0px" y="0px"
	 width="47px" height="47.209px" viewBox="0 0 47 47.209" enable-background="new 0 0 47 47.209" xml:space="preserve">
<path fill="none" stroke="#202145" stroke-miterlimit="10" d="M45.77,37.322c0,4.565-3.701,8.268-8.269,8.268H9.391
	c-4.566,0-8.267-3.7-8.267-8.268V9.211c0-4.566,3.7-8.267,8.267-8.267h28.11c4.565,0,8.269,3.7,8.269,8.267V37.322z"/>
<g>
	<path fill="#202145" d="M13.23,33.492c-0.332-0.363-0.332-0.707,0-1.041l9.18-9.178l-9.18-9.178
		c-0.332-0.33-0.324-0.669,0.023-1.018c0.346-0.346,0.685-0.352,1.018-0.022l9.178,9.179l9.178-9.179
		c0.332-0.329,0.671-0.323,1.02,0.022c0.345,0.349,0.353,0.688,0.021,1.018l-9.178,9.178l9.178,9.178
		c0.148,0.151,0.227,0.325,0.227,0.521c0,0.196-0.076,0.372-0.227,0.521c-0.152,0.149-0.325,0.225-0.52,0.225
		c-0.197,0-0.371-0.073-0.521-0.225l-9.178-9.179l-9.178,9.179c-0.152,0.149-0.324,0.225-0.52,0.225
		C13.555,33.717,13.381,33.644,13.23,33.492z"/>
</g>
</svg>
