<?xml version="1.0" encoding="utf-8"?>
<!-- Generator: Adobe Illustrator 16.0.0, SVG Export Plug-In . SVG Version: 6.00 Build 0)  -->
<!DOCTYPE svg PUBLIC "-//W3C//DTD SVG 1.1//EN" "http://www.w3.org/Graphics/SVG/1.1/DTD/svg11.dtd">
<svg version="1.1" id="Layer_1" xmlns="http://www.w3.org/2000/svg" xmlns:xlink="http://www.w3.org/1999/xlink" x="0px" y="0px"
	 width="371.222px" height="248.867px" viewBox="0 0 371.222 248.867" enable-background="new 0 0 371.222 248.867"
	 xml:space="preserve">
<g id="XMLID_832_">
	<path id="XMLID_834_" fill="#272752" d="M185.712,0C116.983,0,61.275,55.712,61.275,124.435
		c0,68.731,55.708,124.432,124.437,124.432c68.721,0,124.43-55.701,124.43-124.432C310.142,55.712,254.433,0,185.712,0z
		 M185.712,232.878c-59.894,0-108.443-48.559-108.443-108.444c0-59.894,48.549-108.44,108.443-108.44
		c59.893,0,108.438,48.547,108.438,108.44C294.15,184.32,245.605,232.878,185.712,232.878z"/>
	<path id="XMLID_833_" fill="#FFFFFF" d="M185.712,232.878c-59.894,0-108.443-48.559-108.443-108.444
		c0-59.894,48.549-108.44,108.443-108.44c59.893,0,108.438,48.547,108.438,108.44C294.15,184.32,245.605,232.878,185.712,232.878z"
		/>
	<g>
		<g>
			<g>
				<polygon fill="#FF9600" points="185.613,28.768 213.72,85.717 276.568,94.851 231.087,139.179 241.824,201.773 185.613,172.222 
					129.396,201.773 140.135,139.179 94.655,94.851 157.504,85.717 				"/>
				<path fill="#FF9600" d="M129.398,210.8c-1.874,0-3.736-0.58-5.309-1.721c-2.781-2.021-4.175-5.445-3.593-8.834l9.934-57.912
					l-42.078-41.015c-2.463-2.398-3.347-5.989-2.288-9.257c1.065-3.269,3.891-5.65,7.292-6.147l58.152-8.451l26.007-52.69
					c1.521-3.082,4.661-5.033,8.097-5.033l0,0c3.436,0,6.576,1.951,8.098,5.033l26.004,52.69l58.15,8.451
					c3.402,0.497,6.227,2.879,7.289,6.147c1.061,3.268,0.178,6.858-2.283,9.257l-42.08,41.015l9.934,57.912
					c0.582,3.389-0.811,6.812-3.594,8.834c-2.779,2.018-6.467,2.285-9.508,0.688l-52.01-27.344L133.6,209.767
					C132.278,210.458,130.833,210.8,129.398,210.8z M114.061,101.157l32.378,31.553c2.126,2.078,3.099,5.068,2.594,7.996
					l-7.642,44.561l40.022-21.039c2.63-1.383,5.77-1.383,8.401,0l40.018,21.037l-7.645-44.559c-0.5-2.93,0.471-5.918,2.598-7.996
					l32.377-31.553l-44.742-6.504c-2.939-0.427-5.482-2.274-6.799-4.939l-20.008-40.542l-20.009,40.542
					c-1.316,2.665-3.859,4.513-6.802,4.939L114.061,101.157z"/>
			</g>
			<g>
				<polygon fill="#272752" points="185.613,28.768 213.72,85.717 276.568,94.851 231.087,139.179 241.824,201.773 185.613,172.222 
					129.396,201.773 140.135,139.179 94.655,94.851 157.504,85.717 				"/>
				<path fill="#272752" d="M129.396,204.998c-0.667,0-1.334-0.207-1.896-0.615c-0.991-0.723-1.491-1.945-1.281-3.154l10.449-60.924
					L92.403,97.16c-0.88-0.858-1.196-2.137-0.816-3.306c0.379-1.166,1.389-2.018,2.604-2.194l61.172-8.892l27.357-55.428
					c0.544-1.101,1.664-1.799,2.892-1.799c1.227,0,2.348,0.698,2.893,1.799l27.355,55.428l61.17,8.892
					c1.213,0.177,2.225,1.028,2.605,2.194c0.377,1.169,0.059,2.447-0.816,3.306l-44.268,43.144l10.449,60.924
					c0.209,1.209-0.289,2.432-1.283,3.154c-0.992,0.721-2.312,0.818-3.396,0.246l-54.709-28.764l-54.718,28.764
					C130.427,204.876,129.911,204.998,129.396,204.998z M101.585,97.101l40.799,39.772c0.761,0.738,1.107,1.805,0.93,2.852
					l-9.633,56.154l50.432-26.512c0.94-0.494,2.061-0.494,3,0l50.43,26.512l-9.633-56.154c-0.18-1.047,0.168-2.113,0.926-2.852
					l40.801-39.772l-56.379-8.192c-1.051-0.152-1.959-0.812-2.432-1.764l-25.213-51.089l-25.215,51.089
					c-0.47,0.952-1.378,1.611-2.43,1.764L101.585,97.101z"/>
			</g>
			<g>
				<polygon fill="#FF9600" points="133.49,196.134 143.172,139.701 185.036,124.149 101.283,97.005 157.948,88.769 
					185.484,123.466 185.613,35.733 210.951,87.082 186.746,123.431 269.941,97.005 228.939,136.972 186.847,124.767 
					237.73,196.134 187.044,169.494 185.755,125.007 133.49,196.134 				"/>
			</g>
		</g>
	</g>
	<g>
		<path fill="#FF9600" d="M288.287,91.045c1.459,4.496,0.264,9.178-3.119,12.475l-3.451,3.208h61.645l27.861-25h-94.996l2.113,0.618
			C283.015,83.028,286.826,86.551,288.287,91.045z"/>
		<path fill="#FF9600" d="M82.935,91.046c1.463-4.495,5.273-8.018,9.948-8.7l2.111-0.618H0l27.859,25h61.646l-3.451-3.208
			C82.673,100.226,81.477,95.542,82.935,91.046z"/>
		<polygon fill="#FF9600" points="33.432,111.728 61.29,137.728 121.59,137.728 94.571,111.728 		"/>
		<polygon fill="#FF9600" points="309.931,137.728 337.789,111.728 276.65,111.728 249.63,137.728 		"/>
		<polygon fill="#FF9600" points="248.525,166.728 276.5,166.728 304.361,142.728 244.566,142.728 244.33,142.613 		"/>
		<polygon fill="#FF9600" points="126.656,142.728 66.859,142.728 94.72,166.728 122.698,166.728 126.894,142.613 		"/>
	</g>
</g>
</svg>
