<?xml version="1.0" encoding="utf-8"?>
<!-- Generator: Adobe Illustrator 16.0.0, SVG Export Plug-In . SVG Version: 6.00 Build 0)  -->
<!DOCTYPE svg PUBLIC "-//W3C//DTD SVG 1.1//EN" "http://www.w3.org/Graphics/SVG/1.1/DTD/svg11.dtd">
<svg version="1.1" id="Layer_1" xmlns="http://www.w3.org/2000/svg" xmlns:xlink="http://www.w3.org/1999/xlink" x="0px" y="0px"
	 width="287.333px" height="276.667px" viewBox="0 0 287.333 276.667" enable-background="new 0 0 287.333 276.667"
	 xml:space="preserve">
<g id="XMLID_787_">
	<g>
		<g>
			<path fill="#FF9600" d="M139.168,215.802c-45.281,0-81.989-36.709-81.989-81.99c0-45.278,36.708-81.988,81.989-81.988
				c45.279,0,81.986,36.71,81.986,81.988c0,22.089-8.75,42.122-22.954,56.865l5.715,7.062
				c16.244-16.453,26.295-39.035,26.295-63.928c0-50.201-40.842-91.041-91.042-91.041c-50.202,0-91.042,40.84-91.042,91.041
				s40.841,91.044,91.042,91.044c18.436,0,35.596-5.524,49.948-14.979l-5.707-7.053
				C170.643,211.025,155.469,215.802,139.168,215.802z"/>
			<path fill="#272752" d="M139.168,204.611c-39.1,0-70.798-31.697-70.798-70.799c0-39.099,31.698-70.795,70.798-70.795
				c39.098,0,70.795,31.696,70.795,70.795c0,18.574-7.16,35.469-18.861,48.096l1.334,1.649
				c12.188-13.041,19.666-30.531,19.666-49.745c0-40.216-32.719-72.935-72.934-72.935c-40.217,0-72.936,32.718-72.936,72.935
				c0,40.219,32.719,72.938,72.936,72.938c14.124,0,27.312-4.047,38.497-11.027l-1.336-1.648
				C165.526,200.75,152.799,204.611,139.168,204.611z"/>
			<path fill="#272752" d="M139.168,206.75c-40.217,0-72.936-32.719-72.936-72.938c0-40.216,32.719-72.935,72.936-72.935
				c40.215,0,72.934,32.718,72.934,72.935c0,19.214-7.479,36.704-19.666,49.745l5.764,7.12
				c14.205-14.743,22.955-34.776,22.955-56.865c0-45.278-36.707-81.988-81.986-81.988c-45.281,0-81.989,36.71-81.989,81.988
				c0,45.281,36.708,81.99,81.989,81.99c16.3,0,31.475-4.777,44.24-12.979l-5.744-7.104
				C166.481,202.703,153.292,206.75,139.168,206.75z"/>
			<path fill="#FF9600" d="M139.168,189.798c-30.921,0-55.985-25.065-55.985-55.986c0-30.919,25.063-55.984,55.985-55.984
				c30.918,0,55.984,25.065,55.984,55.984c0,13.916-5.088,26.637-13.489,36.43l9.438,11.666c11.7-12.627,18.86-29.521,18.86-48.096
				c0-39.099-31.696-70.795-70.794-70.795c-39.1,0-70.798,31.696-70.798,70.795c0,39.102,31.698,70.799,70.798,70.799
				c13.63,0,26.357-3.861,37.16-10.537l-9.418-11.64C158.731,187.113,149.266,189.798,139.168,189.798z"/>
			<path fill="#272752" d="M139.168,177.662c-24.215,0-43.844-19.633-43.844-43.85c0-24.212,19.629-43.844,43.844-43.844
				c24.213,0,43.844,19.632,43.844,43.844c0,10.094-3.418,19.382-9.148,26.792l7.799,9.638c8.402-9.793,13.49-22.514,13.49-36.43
				c0-30.919-25.066-55.984-55.984-55.984c-30.921,0-55.985,25.065-55.985,55.984c0,30.921,25.063,55.986,55.985,55.986
				c10.098,0,19.562-2.688,27.742-7.364l-7.762-9.595C153.153,175.914,146.368,177.662,139.168,177.662z"/>
			<path fill="#FF9600" d="M139.168,89.968c-24.215,0-43.844,19.632-43.844,43.844c0,24.217,19.629,43.85,43.844,43.85
				c7.2,0,13.984-1.748,19.98-4.82l-12.828-15.854c-2.262,0.697-4.662,1.075-7.152,1.075c-13.393,0-24.25-10.856-24.25-24.251
				c0-13.39,10.856-24.246,24.25-24.246c13.391,0,24.249,10.856,24.249,24.246c0,3.864-0.929,7.505-2.535,10.746l12.981,16.046
				c5.729-7.41,9.147-16.698,9.147-26.792C183.012,109.6,163.381,89.968,139.168,89.968z"/>
			<path fill="#272752" d="M139.168,148.949c-8.358,0-15.133-6.777-15.133-15.137c0-8.357,6.775-15.131,15.133-15.131
				c8.357,0,15.133,6.774,15.133,15.131c0,0.807-0.08,1.592-0.203,2.365l6.783,8.381c1.606-3.241,2.535-6.882,2.535-10.746
				c0-13.39-10.857-24.246-24.249-24.246c-13.393,0-24.25,10.856-24.25,24.246c0,13.395,10.856,24.251,24.25,24.251
				c2.49,0,4.891-0.378,7.152-1.076l-6.531-8.071C139.581,148.923,139.377,148.949,139.168,148.949z"/>
			<path fill="#FF9600" d="M131.835,134.772c0.236-2.605,1.494-4.946,3.537-6.585c1.691-1.359,3.818-2.109,5.986-2.109
				c2.92,0,5.639,1.305,7.467,3.58l5.273,6.52c0.123-0.772,0.203-1.558,0.203-2.365c0-8.357-6.775-15.131-15.133-15.131
				s-15.133,6.774-15.133,15.131c0,8.358,6.775,15.136,15.133,15.136c0.209,0,0.412-0.023,0.621-0.033l-5.88-7.266
				C132.339,139.692,131.604,137.254,131.835,134.772z"/>
		</g>
		<g>
			<polygon fill="#FF9600" points="199.979,209.824 226.442,209.628 252.436,243.098 226.709,241.619 222.374,266.792 
				195.407,234.396 			"/>
			<g>
				<path fill="#272752" d="M135.365,135.625c0.15-1.635,0.938-3.212,2.321-4.323c2.703-2.171,6.654-1.739,8.824,0.965
					l85.391,105.527c2.17,2.703,1.74,6.654-0.963,8.824c-2.705,2.172-6.656,1.739-8.826-0.963l-85.389-105.527
					C135.662,138.805,135.222,137.188,135.365,135.625z"/>
			</g>
		</g>
	</g>
</g>
</svg>
