<?xml version="1.0" encoding="utf-8"?>
<!-- Generator: Adobe Illustrator 16.0.0, SVG Export Plug-In . SVG Version: 6.00 Build 0)  -->
<!DOCTYPE svg PUBLIC "-//W3C//DTD SVG 1.1//EN" "http://www.w3.org/Graphics/SVG/1.1/DTD/svg11.dtd">
<svg version="1.1" id="Layer_1" xmlns="http://www.w3.org/2000/svg" xmlns:xlink="http://www.w3.org/1999/xlink" x="0px" y="0px"
	 width="83.793px" height="104.293px" viewBox="0 0 83.793 104.293" enable-background="new 0 0 83.793 104.293"
	 xml:space="preserve">
<g id="XMLID_5348_">
	<path id="XMLID_5368_" fill="#272752" d="M73.463,48.074h-1.266V14.586V10.33C72.197,4.248,67.947,0,61.865,0H49.15
		c-3.615,0-6.877,1.563-9.187,4.4L2.888,49.964C0.97,52.364,0,55.204,0,58.402v4.256v11.316v4.256
		c0,6.15,4.248,10.445,10.332,10.445h29.043v1.028v4.258c0,6.082,4.249,10.331,10.331,10.331h12.27
		c6.02,0,10.223-4.249,10.223-10.331v-4.258v-1.028h1.266c6.082,0,10.33-4.295,10.33-10.445v-4.256V62.658v-4.256
		C83.793,52.318,79.545,48.074,73.463,48.074z"/>
	<path id="XMLID_5365_" opacity="0.2" fill="#263238" d="M73.463,50.911h-4.105V17.423V10.33c0-4.48-3.012-7.493-7.492-7.493H49.15
		c-2.785,0-5.201,1.16-6.985,3.355L5.108,51.735c-1.507,1.884-2.27,4.128-2.27,6.667v7.095v1.386v7.092
		c0,4.551,3.01,7.605,7.493,7.605h31.882v1.031v7.093c0,4.48,3.011,7.492,7.492,7.492h12.27c4.418,0,7.383-3.012,7.383-7.492v-7.093
		V81.58h4.105c4.482,0,7.492-3.055,7.492-7.605v-7.092v-1.386v-7.095C80.955,53.922,77.945,50.911,73.463,50.911z M37.817,50.911
		l4.509-5.464v5.464H37.817z"/>
	<path id="XMLID_5362_" fill="#B20B4F" d="M73.463,50.911h-4.105V17.423V10.33c0-4.48-3.012-7.493-7.492-7.493H49.15
		c-2.785,0-5.201,1.16-6.985,3.355L5.108,51.735c-1.507,1.884-2.27,4.128-2.27,6.667v7.095v1.386v7.092
		c0,4.551,3.01,7.605,7.493,7.605h31.882v1.031v7.093c0,4.48,3.011,7.492,7.492,7.492h12.27c4.418,0,7.383-3.012,7.383-7.492v-7.093
		V81.58h4.105c4.482,0,7.492-3.055,7.492-7.605v-7.092v-1.386v-7.095C80.955,53.922,77.945,50.911,73.463,50.911z M37.817,50.911
		l4.509-5.464v5.464H37.817z"/>
	<path id="XMLID_5359_" fill="#FFC800" d="M49.703,85.844c-2.154,0-3.232-1.078-3.232-3.232V70.227H10.332
		c-2.156,0-3.235-1.111-3.235-3.344v-8.48c0-1.561,0.446-2.897,1.337-4.016L45.469,8.879c0.965-1.19,2.191-1.783,3.682-1.783h12.715
		c2.156,0,3.232,1.078,3.232,3.234v44.837h8.365c2.158,0,3.236,1.079,3.236,3.235v8.48c0,2.232-1.078,3.344-3.236,3.344h-8.365
		v12.385c0,2.154-1.041,3.232-3.123,3.232H49.703z M22.935,55.167h23.647V26.502L22.935,55.167z"/>
	<g id="XMLID_5350_">
		<path fill="#FFFFFF" d="M61.865,7.096c2.156,0,3.232,1.078,3.232,3.234v44.837h8.365c2.158,0,3.236,1.079,3.236,3.235v8.48
			c0,2.232-1.078,3.344-3.236,3.344h-8.365v12.385c0,2.154-1.041,3.232-3.123,3.232H49.703c-2.154,0-3.232-1.078-3.232-3.232V70.227
			H10.332c-2.156,0-3.235-1.111-3.235-3.344v-8.48c0-1.561,0.446-2.897,1.337-4.016L45.469,8.879
			c0.965-1.19,2.191-1.783,3.682-1.783H61.865 M22.935,55.167h23.647V26.502L22.935,55.167 M61.865,5.987H49.15
			c-1.834,0-3.362,0.738-4.543,2.194L7.573,53.687c-1.055,1.324-1.585,2.907-1.585,4.716v8.48c0,2.83,1.583,4.453,4.344,4.453h35.03
			v11.275c0,2.759,1.583,4.342,4.342,4.342h12.271c2.689,0,4.232-1.583,4.232-4.342V71.336h7.256c2.762,0,4.346-1.623,4.346-4.453
			v-8.48c0-2.761-1.584-4.345-4.346-4.345h-7.256V10.33C66.207,7.57,64.624,5.987,61.865,5.987L61.865,5.987z M25.288,54.058
			l20.185-24.469v24.469H25.288L25.288,54.058z"/>
	</g>
	<path id="XMLID_5349_" opacity="0.2" fill="#B20B4F" d="M10.332,70.227h36.139v12.385c0,2.154,1.078,3.232,3.232,3.232h12.271
		c2.082,0,3.123-1.078,3.123-3.232V70.227h8.365c2.158,0,3.236-1.111,3.236-3.344v-2.475c-21.766-1.117-46.014-4.023-67.907-10.461
		l-0.359,0.439c-0.891,1.118-1.337,2.455-1.337,4.016v8.48C7.096,69.115,8.175,70.227,10.332,70.227z"/>
</g>
</svg>
