<?xml version="1.0" encoding="utf-8"?>
<!-- Generator: Adobe Illustrator 16.0.0, SVG Export Plug-In . SVG Version: 6.00 Build 0)  -->
<!DOCTYPE svg PUBLIC "-//W3C//DTD SVG 1.1//EN" "http://www.w3.org/Graphics/SVG/1.1/DTD/svg11.dtd">
<svg version="1.1" id="Layer_1" xmlns="http://www.w3.org/2000/svg" xmlns:xlink="http://www.w3.org/1999/xlink" x="0px" y="0px"
	 width="73.644px" height="105.63px" viewBox="0 0 73.644 105.63" enable-background="new 0 0 73.644 105.63" xml:space="preserve">
<g id="XMLID_5666_">
	<path id="XMLID_5680_" opacity="0.2" fill="#263238" d="M63.198,67.646h-7.627c0.678-0.661,1.355-1.322,2.027-2.011
		c3.691-3.772,6.68-7.998,8.879-12.562c2.281-4.731,3.438-9.556,3.438-14.342c0-1.237-0.084-2.429-0.209-3.604
		c0.135-1.162,0.209-2.328,0.209-3.49c0-8.4-2.891-15.39-8.586-20.771c-5.625-5.326-14.229-8.027-25.568-8.027
		c-10.574,0-18.732,2.573-24.246,7.652c-5.609,5.167-8.454,11.945-8.454,20.142c0,1.426,0.057,2.701,0.168,3.828
		c-0.104,1.065-0.168,2.15-0.168,3.267c0,2.852,0.229,5.104,0.668,6.755c0.892,3.886,3.61,6.204,7.272,6.204h11.375
		c4.215,0,7.047-2.787,7.047-6.938c0-0.48-0.055-1.126-0.334-2.854c-0.08-0.483-0.135-0.952-0.172-1.414
		c0.33-0.842,0.506-1.793,0.506-2.826c0-0.153-0.006-0.328-0.023-0.544c0.205-0.37,0.449-0.726,0.783-1.061
		c0.85-0.852,2.754-1.319,5.355-1.319c4.033,0,5.865,1.109,6.63,3.113c-0.471,1.814-1.271,3.686-2.418,5.596
		c-2.107,3.516-5,6.915-8.597,10.102c-3.795,3.365-7.627,6.369-11.391,8.924c-3.836,2.602-7.98,5.17-12.312,7.627l-0.188,0.113
		c-2.854,1.816-4.424,4.481-4.424,7.494v7.095v0.155v7.096c0,4.48,3.01,7.492,7.491,7.492h52.869c4.551,0,7.607-3.012,7.607-7.492
		v-7.096v-1.717v-7.094C70.806,70.657,67.749,67.646,63.198,67.646z"/>
	<path id="XMLID_5677_" fill="#272752" d="M65.278,64.985c1.414-2.06,2.686-4.201,3.756-6.426
		c2.467-5.117,3.717-10.356,3.717-15.572c0-0.677-0.031-1.383-0.074-2.109c0.045-0.714,0.074-1.432,0.074-2.148
		c0-0.464-0.018-0.941-0.039-1.424c0.021-0.475,0.039-0.949,0.039-1.414c0-0.684-0.053-1.342-0.088-2.009
		c0.053-0.755,0.088-1.506,0.088-2.247c0-9.212-3.188-16.893-9.471-22.832C57.11,2.961,47.849,0,35.761,0
		C24.449,0,15.646,2.827,9.593,8.402c-6.216,5.729-9.369,13.21-9.369,22.23c0,0.91,0.031,1.754,0.074,2.565
		c-0.025,0.564-0.074,1.113-0.074,1.69c0,0.546,0.013,1.057,0.031,1.568c-0.019,0.427-0.031,0.852-0.031,1.271
		c0,0.829,0.021,1.613,0.057,2.36c-0.034,0.644-0.057,1.277-0.057,1.898c0,3.061,0.256,5.576,0.737,7.388
		c1.192,5.186,5.04,8.406,10.04,8.406h9.078c-0.637,0.457-1.275,0.906-1.912,1.339c-3.766,2.554-7.844,5.081-12.178,7.54l-0.25,0.15
		C2.092,69.131,0,72.737,0,76.698v4.256v10.09v4.258c0,6.08,4.248,10.328,10.33,10.328h52.869c6.152,0,10.445-4.248,10.445-10.328
		v-4.258V79.396v-4.258C73.644,69.77,70.292,65.833,65.278,64.985z M37.318,40.98c-1.34,2.237-3.053,4.426-5.07,6.544
		c-0.02-0.407-0.074-0.931-0.188-1.726c0.119-0.658,0.201-1.335,0.201-2.051c0-0.376-0.021-0.792-0.104-1.455
		c0.043-0.332,0.088-0.663,0.098-1.004c0.357-0.171,1.363-0.465,3.283-0.465c0.734,0,1.322,0.042,1.803,0.11
		C37.332,40.949,37.328,40.962,37.318,40.98z"/>
	<path id="XMLID_5676_" fill="#B20B4F" d="M63.198,67.646h-7.627c0.678-0.661,1.355-1.322,2.027-2.011
		c3.691-3.772,6.68-7.998,8.879-12.562c2.281-4.731,3.438-9.556,3.438-14.342c0-1.237-0.084-2.429-0.209-3.604
		c0.135-1.162,0.209-2.328,0.209-3.49c0-8.4-2.891-15.39-8.586-20.771c-5.625-5.326-14.229-8.027-25.568-8.027
		c-10.574,0-18.732,2.573-24.246,7.652c-5.609,5.167-8.454,11.945-8.454,20.142c0,1.426,0.057,2.701,0.168,3.828
		c-0.104,1.065-0.168,2.15-0.168,3.267c0,2.852,0.229,5.104,0.668,6.755c0.892,3.886,3.61,6.204,7.272,6.204h11.375
		c4.215,0,7.047-2.787,7.047-6.938c0-0.48-0.055-1.126-0.334-2.854c-0.08-0.483-0.135-0.952-0.172-1.414
		c0.33-0.842,0.506-1.793,0.506-2.826c0-0.153-0.006-0.328-0.023-0.544c0.205-0.37,0.449-0.726,0.783-1.061
		c0.85-0.852,2.754-1.319,5.355-1.319c4.033,0,5.865,1.109,6.63,3.113c-0.471,1.814-1.271,3.686-2.418,5.596
		c-2.107,3.516-5,6.915-8.597,10.102c-3.795,3.365-7.627,6.369-11.391,8.924c-3.836,2.602-7.98,5.17-12.312,7.627l-0.188,0.113
		c-2.854,1.816-4.424,4.481-4.424,7.494v7.095v0.155v7.096c0,4.48,3.01,7.492,7.491,7.492h52.869c4.551,0,7.607-3.012,7.607-7.492
		v-7.096v-1.717v-7.094C70.806,70.657,67.749,67.646,63.198,67.646z"/>
	<path id="XMLID_5674_" fill="#FFC800" d="M24.886,34.482c0.186,1.149,0.279,1.875,0.279,2.172c0,1.786-0.93,2.679-2.789,2.679H11
		c-1.635,0-2.678-0.967-3.123-2.903c-0.371-1.411-0.557-3.346-0.557-5.798c0-6.991,2.361-12.663,7.08-17.011
		c4.723-4.35,11.846-6.525,21.361-6.525c10.263,0,17.81,2.286,22.642,6.862c4.836,4.571,7.252,10.462,7.252,17.678
		c0,4.164-1.006,8.328-3.01,12.493c-2.01,4.162-4.707,7.975-8.088,11.433c-3.385,3.455-6.785,6.506-10.207,9.146
		c-3.422,2.642-6.99,5.039-10.708,7.196H63.2c2.23,0,3.348,1.075,3.348,3.233v8.811c0,2.156-1.117,3.234-3.348,3.234H10.33
		c-2.156,0-3.234-1.078-3.234-3.234v-7.25c0-1.561,0.816-2.86,2.455-3.903c4.459-2.528,8.662-5.134,12.604-7.807
		c3.941-2.679,7.883-5.766,11.824-9.259c3.941-3.495,7.082-7.196,9.425-11.1c2.34-3.907,3.514-7.712,3.514-11.435
		c0-7.212-3.795-10.82-11.378-10.82c-3.865,0-6.654,0.855-8.365,2.567c-1.711,1.71-2.566,3.792-2.566,6.244
		C24.607,32.229,24.699,33.328,24.886,34.482z"/>
	<g id="XMLID_5668_">
		<path fill="#FFFFFF" d="M35.761,7.096c10.263,0,17.81,2.286,22.642,6.862c4.836,4.571,7.252,10.462,7.252,17.678
			c0,4.164-1.006,8.328-3.01,12.493c-2.01,4.162-4.707,7.975-8.088,11.433c-3.385,3.455-6.785,6.506-10.207,9.146
			c-3.422,2.642-6.99,5.039-10.708,7.196H63.2c2.23,0,3.348,1.075,3.348,3.233v8.811c0,2.156-1.117,3.234-3.348,3.234H10.33
			c-2.156,0-3.234-1.078-3.234-3.234v-7.25c0-1.561,0.816-2.86,2.455-3.903c4.459-2.528,8.662-5.134,12.604-7.807
			c3.941-2.679,7.883-5.766,11.824-9.259c3.941-3.495,7.082-7.196,9.425-11.1c2.34-3.907,3.514-7.712,3.514-11.435
			c0-7.212-3.795-10.82-11.378-10.82c-3.865,0-6.654,0.855-8.365,2.567c-1.711,1.71-2.566,3.792-2.566,6.244
			c0,1.042,0.092,2.142,0.279,3.295c0.186,1.149,0.279,1.875,0.279,2.172c0,1.786-0.93,2.679-2.789,2.679H11
			c-1.635,0-2.678-0.967-3.123-2.903c-0.371-1.411-0.557-3.346-0.557-5.798c0-6.991,2.361-12.663,7.08-17.011
			C19.123,9.271,26.246,7.096,35.761,7.096 M35.761,5.987c-9.76,0-17.2,2.294-22.113,6.819c-4.935,4.547-7.438,10.545-7.438,17.826
			c0,2.573,0.194,4.562,0.593,6.08c0.745,3.241,2.949,3.73,4.196,3.73h11.377c2.477,0,3.898-1.38,3.898-3.788
			c0-0.247-0.033-0.738-0.293-2.349c-0.176-1.083-0.265-2.132-0.265-3.119c0-2.167,0.733-3.952,2.242-5.46
			c1.487-1.488,4.038-2.242,7.581-2.242c7.006,0,10.269,3.086,10.269,9.711c0,3.491-1.129,7.146-3.355,10.865
			c-2.277,3.793-5.376,7.44-9.21,10.839c-3.891,3.448-7.831,6.534-11.712,9.172c-3.917,2.656-8.132,5.267-12.527,7.759l-0.025,0.014
			l-0.023,0.016c-1.97,1.254-2.969,2.882-2.969,4.839v7.25c0,2.76,1.583,4.344,4.343,4.344H63.2c2.832,0,4.457-1.584,4.457-4.344
			v-8.811c0-2.76-1.625-4.343-4.457-4.343H37.603c2.55-1.62,5.036-3.364,7.426-5.209c3.431-2.647,6.903-5.759,10.321-9.248
			c3.451-3.529,6.241-7.474,8.295-11.727c2.07-4.304,3.12-8.669,3.12-12.976c0-7.499-2.557-13.718-7.6-18.484
			C54.146,8.397,46.271,5.987,35.761,5.987L35.761,5.987z"/>
	</g>
	<path id="XMLID_5667_" opacity="0.2" fill="#B20B4F" d="M10.33,87.183H63.2c2.23,0,3.348-1.078,3.348-3.234v-8.811
		c0-2.158-1.117-3.233-3.348-3.233H33.642c3.719-2.157,7.287-4.555,10.708-7.196c3.422-2.641,6.822-5.691,10.207-9.146
		c3.381-3.458,6.078-7.271,8.088-11.433c0.873-1.819,1.545-3.632,2.039-5.449c-8.314,4.259-17.129,8.559-26.348,12.692
		c-1.333,1.484-2.763,2.942-4.357,4.358c-3.943,3.493-7.885,6.58-11.826,9.259c-3.941,2.673-8.145,5.278-12.604,7.806
		c-1.639,1.044-2.455,2.344-2.455,3.904v7.25C7.095,86.104,8.173,87.183,10.33,87.183z"/>
</g>
</svg>
