<?xml version="1.0" encoding="utf-8"?>
<!-- Generator: Adobe Illustrator 16.0.0, SVG Export Plug-In . SVG Version: 6.00 Build 0)  -->
<!DOCTYPE svg PUBLIC "-//W3C//DTD SVG 1.1//EN" "http://www.w3.org/Graphics/SVG/1.1/DTD/svg11.dtd">
<svg version="1.1" id="Layer_1" xmlns="http://www.w3.org/2000/svg" xmlns:xlink="http://www.w3.org/1999/xlink" x="0px" y="0px"
	 width="193.9px" height="180px" viewBox="0 0 193.9 180" enable-background="new 0 0 193.9 180" xml:space="preserve">
<g id="XMLID_835_">
	<g id="XMLID_843_">
		<path fill="#272852" d="M191.941,86.774l-41.163-71.306c-2.618-4.521-7.443-7.31-12.663-7.31H55.786
			c-5.228,0-10.049,2.789-12.667,7.31L1.96,86.774c-2.613,4.518-2.613,10.092,0,14.617l41.159,71.298
			c2.618,4.525,7.439,7.311,12.667,7.311h82.329c5.22,0,10.045-2.785,12.663-7.311l41.163-71.298
			C194.551,96.867,194.551,91.292,191.941,86.774z"/>
	</g>
	<path id="XMLID_842_" fill="#F8961D" d="M191.949,78.218L150.992,7.271C148.391,2.777,143.588,0,138.393,0h-81.92
		c-5.192,0-9.986,2.777-12.597,7.271L2.928,78.218c-2.609,4.501-2.609,10.045,0,14.546l40.948,70.943
		c2.61,4.498,7.404,7.275,12.597,7.275h81.92c5.195,0,9.998-2.777,12.6-7.275l40.957-70.943
		C194.551,88.263,194.551,82.72,191.949,78.218z"/>
	<path id="XMLID_841_" fill="#B21E51" d="M177.596,79.502l-34.941-60.54c-2.221-3.837-6.32-6.205-10.752-6.205H61.995
		c-4.437,0-8.536,2.368-10.747,6.205l-34.95,60.54c-2.221,3.841-2.221,8.572,0,12.413l34.95,60.544
		c2.211,3.836,6.311,6.208,10.747,6.208h69.907c4.432,0,8.531-2.372,10.752-6.208l34.941-60.544
		C179.819,88.074,179.819,83.343,177.596,79.502z"/>
	<g id="XMLID_839_">
		<defs>
			<path id="XMLID_840_" d="M177.596,79.502l-34.941-60.54c-2.221-3.837-6.32-6.205-10.752-6.205H61.995
				c-4.437,0-8.536,2.368-10.747,6.205l-34.95,60.54c-2.221,3.841-2.221,8.572,0,12.413l34.95,60.544
				c2.211,3.836,6.311,6.208,10.747,6.208h69.907c4.432,0,8.531-2.372,10.752-6.208l34.941-60.544
				C179.819,88.074,179.819,83.343,177.596,79.502z"/>
		</defs>
		<clipPath id="XMLID_6_">
			<use xlink:href="#XMLID_840_"  overflow="visible"/>
		</clipPath>
		<g clip-path="url(#XMLID_6_)">
			<g>
				<g opacity="0.75">
					<path fill="#FFFFFF" d="M102.278,94.595c0,0,10.807-5.665,10.846-15.365c0.038-9.701-12.113-15.684-22.05-13.78L79.433,92.737
						L102.278,94.595z"/>
					<path opacity="0.6" fill="#FFFFFF" d="M116.552,77.865c0,0,2.493,9.775-6.824,13.59
						C109.728,91.455,117.03,87.785,116.552,77.865"/>
					<path opacity="0.6" fill="#FFFFFF" d="M117.629,79.632c0,0,3.654,7.173-3.936,10.79
						C113.693,90.422,119.046,86.165,117.629,79.632"/>
				</g>
				<path fill="#FFFFFF" d="M101.817,93.703c0,0,9.986-5.235,10.022-14.199c0.034-8.964-11.194-14.493-20.377-12.734L80.705,91.985
					L101.817,93.703z"/>
				<path fill="#FFC907" d="M97.782,86.742c3.772,5,17.121,23.54,11.667,28.594c-2.919,2.706-8.134-6.586-13.193-9.407
					C97.075,99.909,97.645,93.455,97.782,86.742z"/>
				<g opacity="0.75">
					<path fill="#FFFFFF" d="M8.076,95.523c0,0-10.957-5.37-11.259-15.065C-3.484,70.762,8.5,64.452,18.484,66.084l12.379,26.961
						L8.076,95.523z"/>
					<path opacity="0.6" fill="#FFFFFF" d="M-5.285,80.297c0,0-2.227,9.838,7.191,13.399C1.906,93.696-5.494,90.226-5.285,80.297"/>
				</g>
				<path fill="#FFFFFF" d="M8.486,94.672c0,0-10.174-4.986-10.455-13.99c-0.28-9.004,10.85-14.864,20.121-13.348l11.495,25.037
					L8.486,94.672z"/>
			</g>
			<g>
				<g opacity="0.75">
					<path fill="#FFFFFF" d="M189.393,106.442c0,0,10.236-5.365,10.273-14.554c0.036-9.189-11.475-14.856-20.887-13.053
						l-11.027,25.848L189.393,106.442z"/>
				</g>
				<path fill="#FFFFFF" d="M188.956,105.597c0,0,9.459-4.959,9.493-13.449c0.033-8.492-10.604-13.729-19.301-12.062l-10.19,23.887
					L188.956,105.597z"/>
				<g>
					<path fill="#272852" d="M157.764,47.986c0,0,3.729-18.18,16.812-20.011c0.784-0.11,1.285,1.019,1.285,2.054
						c0,1.412-1.254,2.211-2.195,2.211c-1.316,0-1.929-1.004-1.929-1.004s-8.642,3.011-11.904,16.06l-2.069,1.004V47.986z"/>
				</g>
				<g opacity="0.75">
					<path fill="#FFFFFF" d="M100.159,107.322c0,0-10.378-5.087-10.665-14.271c-0.285-9.184,11.067-15.162,20.524-13.615
						l11.726,25.54L100.159,107.322z"/>
					<path opacity="0.6" fill="#FFFFFF" d="M87.503,92.899c0,0-2.109,9.32,6.812,12.692
						C94.314,105.591,87.305,102.305,87.503,92.899"/>
					<path opacity="0.6" fill="#FFFFFF" d="M86.528,94.6c0,0-3.275,6.886,4.004,10.116C90.532,104.716,85.354,100.822,86.528,94.6"
						/>
				</g>
				<path fill="#FFFFFF" d="M100.549,106.517c0,0-9.639-4.725-9.904-13.252c-0.266-8.529,10.276-14.08,19.06-12.644l10.889,23.717
					L100.549,106.517z"/>
				<path fill="#FFC907" d="M107.297,109.654c-4.517,3.14-9.043,10.786-11.646,8.376c-4.843-4.489,5.97-20.206,10.283-26.055
					C106.092,97.399,106.522,103.285,107.297,109.654z"/>
				<path fill="#FFC907" d="M185.134,91.948c3.573,4.736,16.218,22.297,11.052,27.085c-2.765,2.563-7.705-6.239-12.497-8.911
					C184.464,104.421,185.003,98.306,185.134,91.948z"/>
				<path fill="#272852" d="M125.394,52.879c0,0,0.9-22.752,15.759-27.502c1.148-0.366,3.474,1.886,1.174,3.517
					c-2.413,1.711-2.157-0.762-3.178-0.251c-2.845,1.422-11.606,8.03-11.917,24.236H125.394z"/>
				<path fill="#FFC907" d="M103.856,115.577c-0.018,1.194-0.066,2.277-0.015,3.616c0.032,0.013,0.068,0.025,0.102,0.038
					c0.055,1.489,0.132,2.934,0.228,4.338l-0.003-0.001c0.148,2.647,0.366,5.136,0.641,7.474c0.158,1.355,0.337,2.66,0.531,3.914
					c0.006,0.04,0.012,0.08,0.018,0.12c0.094,0.597,0.19,1.18,0.29,1.753c0.009,0.053,0.019,0.104,0.027,0.156
					c0.101,0.569,0.204,1.129,0.311,1.676c0.008,0.041,0.016,0.081,0.023,0.121c0.11,0.562,0.224,1.112,0.34,1.65
					c0.001,0.004,0.002,0.009,0.003,0.014c0.24,1.108,0.492,2.168,0.755,3.18c0.005,0.018,0.009,0.035,0.014,0.053
					c0.126,0.487,0.255,0.962,0.386,1.426c0.01,0.035,0.02,0.07,0.029,0.105c0.129,0.457,0.26,0.903,0.393,1.34
					c0.01,0.031,0.02,0.062,0.029,0.093c0.135,0.442,0.272,0.876,0.411,1.297c0.002,0.007,0.005,0.015,0.007,0.022
					c0.287,0.871,0.58,1.695,0.875,2.475c0.002,0.006,0.005,0.012,0.007,0.018c0.143,0.377,0.287,0.742,0.432,1.1
					c0.01,0.023,0.02,0.049,0.029,0.072c0.142,0.348,0.283,0.686,0.425,1.012c0.011,0.025,0.021,0.051,0.033,0.076
					c0.143,0.33,0.286,0.649,0.429,0.959c0.006,0.012,0.012,0.023,0.017,0.035c0.298,0.643,0.596,1.243,0.889,1.801
					c0,0.001,0,0.002,0.001,0.002c0.142,0.271,0.283,0.531,0.424,0.781c0.01,0.02,0.021,0.039,0.031,0.057
					c0.136,0.242,0.27,0.474,0.402,0.697c0.013,0.021,0.026,0.044,0.039,0.066c0.133,0.221,0.264,0.434,0.394,0.638
					c0.01,0.016,0.02,0.031,0.03,0.047c0.133,0.208,0.264,0.409,0.393,0.599c0.001,0.001,0.002,0.002,0.003,0.004
					c0.134,0.197,0.266,0.385,0.395,0.562c0.001,0,0.002,0.002,0.003,0.003c0.123,0.169,0.243,0.328,0.361,0.479
					c0.011,0.014,0.022,0.029,0.033,0.043c0.113,0.145,0.224,0.279,0.331,0.408c0.014,0.016,0.027,0.032,0.041,0.048
					c0.105,0.125,0.209,0.242,0.309,0.352c0.013,0.014,0.025,0.026,0.038,0.04c0.101,0.109,0.199,0.211,0.293,0.305
					c0.007,0.007,0.014,0.014,0.021,0.021c0.097,0.095,0.19,0.183,0.279,0.261c0.002,0.002,0.003,0.004,0.005,0.005
					c0.088,0.077,0.171,0.146,0.251,0.206c0.01,0.008,0.02,0.016,0.029,0.023c0.075,0.057,0.146,0.105,0.214,0.148
					c0.011,0.008,0.022,0.015,0.033,0.021c0.065,0.04,0.127,0.074,0.185,0.102c0.01,0.004,0.019,0.008,0.028,0.012
					c0.057,0.025,0.11,0.045,0.158,0.057c0.006,0.001,0.011,0.002,0.017,0.003c0.05,0.011,0.095,0.015,0.135,0.011
					c3.138-0.318,2.12-6.666,2.258-8.112c0.376-3.932,8.615-11.169,24.675-10.999c19.738,0.209,25.613,10.133,23.586,17.857
					c-0.409,1.561-1.287,8.951,2.17,9.203c0.027,0.002,0.055,0.004,0.084,0.006c0.01,0,0.021,0.001,0.031,0.002
					c0.021,0.001,0.042,0.002,0.063,0.004c0.013,0,0.025,0,0.038,0.001c0.021,0.001,0.043,0.001,0.064,0.001
					c0.012,0,0.024,0,0.037,0c0.031,0,0.064-0.001,0.098-0.003c0.013-0.001,0.025-0.003,0.038-0.003
					c0.022-0.002,0.046-0.004,0.069-0.008c0.016-0.002,0.032-0.004,0.05-0.006c0.021-0.004,0.042-0.008,0.063-0.012
					c0.018-0.004,0.036-0.007,0.055-0.011c0.022-0.005,0.045-0.012,0.068-0.018c0.022-0.007,0.045-0.013,0.068-0.021
					c0.033-0.01,0.066-0.021,0.102-0.034c0.021-0.008,0.044-0.018,0.065-0.026c0.022-0.01,0.045-0.02,0.067-0.029
					c0.024-0.012,0.049-0.023,0.073-0.035c0.022-0.012,0.045-0.023,0.068-0.036c0.025-0.015,0.052-0.028,0.078-0.044
					c0.023-0.014,0.048-0.029,0.072-0.045c0.048-0.029,0.099-0.062,0.149-0.1c0.024-0.017,0.048-0.033,0.073-0.052
					c0.03-0.022,0.062-0.048,0.094-0.072c0.024-0.02,0.049-0.039,0.074-0.06c0.033-0.027,0.066-0.055,0.1-0.085
					c0.025-0.021,0.051-0.044,0.076-0.067c0.035-0.032,0.071-0.063,0.107-0.098c0.005-0.006,0.011-0.012,0.016-0.016
					c0.087-0.082,0.177-0.174,0.27-0.271c0.027-0.029,0.056-0.059,0.084-0.09c0.04-0.043,0.081-0.09,0.122-0.137
					c0.029-0.032,0.059-0.066,0.089-0.102c0.043-0.049,0.085-0.099,0.13-0.151c0.028-0.034,0.059-0.072,0.088-0.108
					c0.086-0.105,0.175-0.217,0.266-0.336c0.028-0.037,0.056-0.072,0.085-0.11c0.048-0.063,0.097-0.131,0.146-0.198
					c0.034-0.047,0.069-0.095,0.105-0.145c0.05-0.069,0.101-0.141,0.152-0.214c0.036-0.052,0.073-0.106,0.111-0.161
					c0.053-0.076,0.105-0.152,0.16-0.232c0.036-0.055,0.073-0.112,0.11-0.168c0.101-0.151,0.204-0.31,0.31-0.475
					c0.042-0.066,0.083-0.131,0.126-0.197c0.057-0.092,0.116-0.188,0.175-0.283c0.046-0.074,0.092-0.148,0.139-0.226
					c0.06-0.098,0.119-0.196,0.18-0.298c0.05-0.082,0.1-0.168,0.15-0.253c0.061-0.104,0.121-0.205,0.184-0.312v-0.001
					c0.883-1.52,1.916-3.466,3.136-5.962c0.938-1.922,1.807-3.938,2.604-6.027c0.082-0.223,0.167-0.444,0.247-0.667
					c0.651-1.749,1.253-3.548,1.807-5.389c0.003-0.013,0.007-0.024,0.011-0.036c0.551-1.836,1.054-3.713,1.507-5.623
					c0.002-0.009,0.004-0.018,0.007-0.027c0.214-0.904,0.416-1.816,0.608-2.733c0.024-0.118,0.049-0.236,0.073-0.354
					c0.188-0.908,0.366-1.822,0.532-2.742c0.004-0.02,0.007-0.039,0.011-0.059c0.16-0.893,0.309-1.792,0.449-2.693
					c0.02-0.13,0.041-0.259,0.061-0.389c0.145-0.95,0.279-1.904,0.401-2.863c0.019-0.145,0.037-0.291,0.055-0.437
					c0.063-0.509,0.123-1.017,0.18-1.526c0.036-0.324,0.07-0.646,0.104-0.971c0.02-0.192,0.043-0.385,0.062-0.577
					c-0.001,0.001-0.003,0.001-0.004,0.001c0.176-1.784,0.317-3.562,0.418-5.328c0.157-1.473,0.139-2.384,0.156-3.715
					c0.013-0.438,0.022-0.873,0.031-1.31c0.003-0.076,0.005-0.149,0.008-0.228c-0.001,0-0.003,0.001-0.004,0.002
					c0.574-32.09-10.061-59.403-10.987-61.363c0,0-8.364-7.193-32.956-7.193c-24.59,0-30.714,10.312-30.714,10.312
					c-5.994,23.004-8.18,41.743-8.254,56.692c-0.013-0.004-0.025-0.008-0.038-0.012c0.017,0.284,0.027,0.553,0.035,0.814
					C103.845,114.349,103.85,114.966,103.856,115.577z"/>
				<g>
					<path fill="#272852" d="M158.38,80.325c-0.328,0.027-0.659,0.038-0.981,0.086c-0.323,0.043-0.644,0.074-0.949,0.134
						c-0.307,0.056-0.604,0.097-0.883,0.171c-0.127,0.032-0.251,0.061-0.372,0.089c-0.694-0.603-1.252-1.459-1.542-2.481
						c-0.673-2.385,0.356-4.763,2.301-5.313c1.944-0.55,4.067,0.937,4.742,3.321c0.414,1.462,0.185,2.92-0.502,3.957
						c-0.271-0.006-0.548-0.005-0.83-0.005C159.039,80.295,158.709,80.304,158.38,80.325z"/>
				</g>
				<g>
					<path fill="#272852" d="M128.981,80.675c0.336-0.057,0.669-0.131,1.002-0.167c0.333-0.04,0.659-0.092,0.979-0.111
						c0.32-0.023,0.629-0.061,0.924-0.059c0.135,0,0.266-0.004,0.394-0.008c0.537-0.779,0.87-1.776,0.895-2.87
						c0.056-2.55-1.585-4.655-3.665-4.7s-3.811,1.985-3.867,4.535c-0.033,1.563,0.572,2.958,1.524,3.814
						c0.267-0.077,0.544-0.146,0.825-0.22C128.317,80.817,128.647,80.74,128.981,80.675z"/>
				</g>
				<path fill="#272852" d="M104.168,123.568c1.555,27.737,10.722,38.093,12.218,37.94c3.138-0.318,2.12-6.666,2.258-8.112
					c0.376-3.932,8.615-11.169,24.675-10.999c19.738,0.209,25.613,10.133,23.586,17.857c-0.409,1.561-1.287,8.951,2.17,9.203
					c1.032,0.074,2.709,0.275,8.361-11.295c4.619-9.455,7.551-21.152,8.718-33.114C156.768,136.522,118.109,128.089,104.168,123.568
					z"/>
				<g>
					<path fill="#272852" d="M186.495,120.345c0.308-2.422,0.167-3.32,0.268-5.875c-29.787,11.631-68.821,3.022-82.953-1.561
						c0.142,2.523-0.054,4.047,0.032,6.284C116.226,123.954,157.242,131.283,186.495,120.345z"/>
				</g>
				<g opacity="0.2">
					<path fill="#263238" d="M166.728,161.159c0.074-0.289,0.138-0.586,0.177-0.904C166.85,160.462,166.787,160.775,166.728,161.159
						z"/>
					<path fill="#263238" d="M141.586,136.961c-24.753-0.604-24.419,13.317-22.916,18.153c-0.026-0.751-0.059-1.374-0.026-1.718
						c0.376-3.932,8.615-11.169,24.675-10.999c16.847,0.178,23.589,7.434,23.943,14.357
						C167.794,149.991,164.986,137.531,141.586,136.961z"/>
				</g>
				<path opacity="0.2" fill="#263238" d="M136.84,103.16c0,0,3.133,1.675,7.43,1.513c4.297-0.164,7.357-2.859,7.357-2.859
					s-2.059,4.188-7.394,4.329S136.84,103.16,136.84,103.16z"/>
				<path fill="#ED1B68" d="M151.271,98.174c-0.938-0.463-1.875-1.442-2.873-2.201c-1.657-1.261-3.823-1.053-4.412-0.117
					c-0.589-0.936-2.755-1.144-4.412,0.117c-0.949,0.722-1.842,1.642-2.733,2.128c2.684,0.55,4.081,2.787,7.162,2.787
					C147.091,100.888,148.865,98.513,151.271,98.174z"/>
				<g>
					<path opacity="0.25" fill="#ED1B68" d="M136.143,50.287c6.188-0.168,11.604-0.29,15.74,5.348
						c1.312-2.22,0.808-4.373,0.808-4.373s2.93,1.144,3.584,2.253c-1.158-2.006-4.291-3.177-4.291-3.177s0.303,1.159-0.201,3.177
						C149.966,50.792,141.894,48.672,136.143,50.287z"/>
					<path fill="#FFC907" d="M120.593,49.889c-8.86,5.166,26.855,21.157,47.159,15.288c9.929,5.691,16.204,18.202,17.382,26.771
						C193.553,88.11,186.917,11.224,120.593,49.889z"/>
					<path fill="#FFC907" d="M139.485,43.043c-10.076-5.807-44.171,5.256-32.81,38.49c5.796-14.687,17.318-27.542,26.501-29.14
						C138.484,47.476,139.485,43.043,139.485,43.043z"/>
					<path opacity="0.25" fill="#ED1B68" d="M137.14,42.104c-12.122-3.272-41.06,8.436-30.464,39.43
						c3.931-9.961,10.496-19.073,17.178-24.409c9.215,5.941,30.109,12.038,43.898,8.052c9.929,5.691,16.204,18.202,17.382,26.771
						C192.792,88.457,187.99,24.526,137.14,42.104z"/>
					<path opacity="0.2" fill="#263238" d="M125.862,55.635c0,0,21.131,10.14,38.876,7.337
						C150.093,62.862,139.703,59.92,125.862,55.635z"/>
					<path opacity="0.2" fill="#263238" d="M133.822,53.01c0,0,14.702,6.355,26.744,3.965
						C150.562,57.294,143.389,55.563,133.822,53.01z"/>
					<path opacity="0.2" fill="#263238" d="M125.633,46.235c0,0-13.335,5.146-15.068,14.312
						C114.021,54.02,118.869,50.615,125.633,46.235z"/>
				</g>
				<path fill="#272852" d="M123.458,73.525c-1.269-0.355,2.424,1.58,3.362,0.94c0.939-0.64,0.473-0.765,0.473-0.765
					S126.105,74.268,123.458,73.525z"/>
				<path fill="#272852" d="M124.517,71.902c-1.319-0.682,2.418,2.234,3.499,1.807c1.082-0.428,0.597-0.673,0.597-0.673
					S127.271,73.327,124.517,71.902z"/>
				<path fill="#272852" d="M126.936,71.083c-1.001-0.87,1.529,2.479,2.653,2.303c1.123-0.176,0.754-0.49,0.754-0.49
					S129.023,72.899,126.936,71.083z"/>
				<path fill="#272852" d="M163.098,74.078c1.29-0.265-2.53,1.404-3.422,0.699c-0.891-0.705-0.417-0.797-0.417-0.797
					S160.403,74.63,163.098,74.078z"/>
				<path fill="#272852" d="M162.156,72.384c1.364-0.587-2.57,2.058-3.619,1.554c-1.048-0.504-0.547-0.714-0.547-0.714
					S159.307,73.609,162.156,72.384z"/>
				<path fill="#272852" d="M159.802,71.396c1.06-0.796-1.702,2.364-2.811,2.109c-1.108-0.255-0.717-0.542-0.717-0.542
					S157.59,73.058,159.802,71.396z"/>
			</g>
			<g>
				<g>
					<path fill="#272852" d="M68.889,41.647c0,0,3.937-19.192,17.748-21.125c0.828-0.116,1.357,1.075,1.357,2.168
						c0,1.491-1.324,2.334-2.318,2.334c-1.391,0-2.036-1.06-2.036-1.06s-9.123,3.179-12.566,16.954l-2.185,1.06V41.647z"/>
				</g>
				<path fill="#FFC907" d="M15.61,105.435c-4.768,3.314-9.546,11.388-12.293,8.842c-5.112-4.738,6.302-21.331,10.855-27.505
					C14.34,92.498,14.793,98.711,15.61,105.435z"/>
				<path fill="#272852" d="M34.716,46.812c0,0,0.95-24.019,16.636-29.034c1.212-0.386,3.667,1.991,1.239,3.713
					c-2.547,1.807-2.277-0.804-3.355-0.265c-3.002,1.502-12.252,8.478-12.58,25.585H34.716z"/>
				<path fill="#FFC907" d="M11.979,113.002c-0.019,1.261-0.07,2.405-0.016,3.817c0.034,0.014,0.072,0.027,0.107,0.041
					c0.058,1.572,0.139,3.098,0.239,4.579c0,0-0.002-0.001-0.003-0.001c0.156,2.795,0.387,5.422,0.676,7.889
					c0.168,1.432,0.356,2.809,0.562,4.133c0.006,0.043,0.013,0.085,0.02,0.127c0.098,0.629,0.199,1.246,0.306,1.851
					c0.009,0.055,0.019,0.11,0.028,0.164c0.105,0.602,0.215,1.192,0.328,1.771c0.008,0.043,0.017,0.085,0.025,0.127
					c0.116,0.593,0.235,1.174,0.358,1.742c0.001,0.005,0.002,0.01,0.003,0.014c0.253,1.172,0.52,2.289,0.797,3.357
					c0.004,0.02,0.009,0.038,0.014,0.057c0.134,0.514,0.27,1.016,0.407,1.506c0.011,0.036,0.021,0.072,0.031,0.109
					c0.137,0.482,0.275,0.955,0.415,1.415c0.01,0.032,0.021,0.065,0.03,0.099c0.144,0.467,0.288,0.924,0.434,1.369
					c0.003,0.008,0.006,0.016,0.008,0.023c0.303,0.919,0.612,1.789,0.924,2.612c0.003,0.007,0.005,0.013,0.007,0.019
					c0.151,0.398,0.304,0.784,0.456,1.16c0.01,0.025,0.021,0.052,0.031,0.078c0.148,0.366,0.299,0.722,0.448,1.067
					c0.012,0.026,0.023,0.054,0.035,0.081c0.15,0.347,0.302,0.685,0.453,1.011c0.006,0.013,0.012,0.024,0.018,0.038
					c0.314,0.678,0.628,1.312,0.938,1.901c0,0.001,0,0.001,0,0.001c0.15,0.286,0.3,0.561,0.448,0.825
					c0.011,0.021,0.021,0.04,0.033,0.06c0.143,0.256,0.284,0.5,0.425,0.736c0.014,0.023,0.027,0.047,0.041,0.069
					c0.141,0.233,0.278,0.458,0.415,0.673c0.011,0.018,0.021,0.033,0.032,0.051c0.141,0.22,0.278,0.431,0.415,0.631
					c0.001,0.002,0.002,0.004,0.003,0.005c0.142,0.208,0.28,0.405,0.417,0.593c0.001,0.002,0.001,0.003,0.002,0.004
					c0.13,0.179,0.257,0.346,0.382,0.506c0.012,0.016,0.023,0.031,0.035,0.047c0.119,0.151,0.235,0.294,0.35,0.43
					c0.014,0.017,0.028,0.034,0.043,0.051c0.112,0.132,0.221,0.256,0.326,0.371c0.014,0.014,0.026,0.027,0.04,0.042
					c0.106,0.115,0.21,0.224,0.31,0.321c0.008,0.008,0.015,0.015,0.021,0.021c0.103,0.101,0.201,0.193,0.296,0.276
					c0.001,0.001,0.003,0.003,0.005,0.005c0.093,0.082,0.181,0.152,0.265,0.218c0.011,0.008,0.021,0.017,0.031,0.024
					c0.079,0.06,0.154,0.111,0.226,0.157c0.012,0.007,0.023,0.015,0.035,0.022c0.069,0.042,0.135,0.078,0.195,0.106
					c0.01,0.005,0.02,0.009,0.029,0.013c0.06,0.027,0.116,0.047,0.167,0.06c0.007,0.001,0.012,0.002,0.018,0.003
					c0.053,0.012,0.101,0.017,0.142,0.013c3.313-0.337,2.238-7.038,2.385-8.565c0.396-4.15,9.095-11.791,26.048-11.611
					c20.839,0.221,27.04,10.697,24.9,18.852c-0.433,1.648-1.359,9.451,2.29,9.716c0.028,0.003,0.059,0.005,0.089,0.007
					c0.011,0,0.021,0.001,0.033,0.002c0.021,0.001,0.044,0.002,0.066,0.004c0.014,0,0.027,0,0.041,0.001
					c0.021,0.001,0.045,0.001,0.067,0.001c0.013,0,0.025,0,0.039,0c0.033,0,0.068-0.001,0.104-0.003
					c0.013-0.001,0.026-0.003,0.04-0.003c0.024-0.002,0.048-0.004,0.073-0.008c0.017-0.002,0.034-0.004,0.053-0.008
					c0.021-0.003,0.044-0.007,0.066-0.012c0.02-0.003,0.038-0.007,0.058-0.012c0.024-0.005,0.049-0.012,0.073-0.018
					c0.023-0.007,0.048-0.014,0.072-0.021c0.035-0.011,0.07-0.022,0.106-0.036c0.022-0.009,0.047-0.019,0.069-0.028
					c0.023-0.01,0.047-0.02,0.071-0.031c0.025-0.012,0.052-0.023,0.077-0.037c0.023-0.012,0.048-0.025,0.072-0.037
					c0.027-0.016,0.055-0.03,0.082-0.047c0.025-0.014,0.051-0.031,0.076-0.047c0.052-0.032,0.104-0.067,0.158-0.105
					c0.025-0.018,0.051-0.035,0.077-0.055c0.032-0.023,0.065-0.051,0.099-0.076c0.026-0.021,0.053-0.041,0.079-0.063
					c0.034-0.028,0.069-0.058,0.105-0.089c0.026-0.023,0.053-0.047,0.08-0.072c0.037-0.033,0.074-0.066,0.113-0.104
					c0.006-0.005,0.012-0.011,0.017-0.016c0.091-0.087,0.187-0.184,0.284-0.287c0.029-0.031,0.059-0.062,0.089-0.094
					c0.042-0.047,0.085-0.095,0.129-0.145c0.031-0.034,0.062-0.07,0.094-0.107c0.045-0.052,0.09-0.104,0.137-0.16
					c0.03-0.037,0.062-0.076,0.093-0.113c0.091-0.111,0.185-0.23,0.28-0.355c0.03-0.039,0.06-0.076,0.09-0.116
					c0.051-0.067,0.103-0.139,0.155-0.209c0.036-0.05,0.073-0.101,0.111-0.153c0.053-0.073,0.106-0.148,0.16-0.226
					c0.039-0.056,0.078-0.112,0.118-0.169c0.056-0.082,0.111-0.162,0.169-0.247c0.038-0.058,0.078-0.118,0.117-0.177
					c0.105-0.16,0.214-0.327,0.326-0.502c0.044-0.068,0.087-0.137,0.133-0.208c0.061-0.097,0.122-0.196,0.185-0.298
					c0.049-0.078,0.097-0.158,0.146-0.238c0.062-0.104,0.126-0.207,0.19-0.314c0.052-0.088,0.104-0.178,0.157-0.268
					c0.064-0.109,0.129-0.216,0.194-0.33l0,0c0.932-1.604,2.022-3.658,3.311-6.293c0.991-2.029,1.907-4.156,2.75-6.363
					c0.087-0.235,0.176-0.47,0.261-0.705c0.688-1.846,1.322-3.745,1.906-5.688c0.004-0.013,0.008-0.024,0.012-0.038
					c0.582-1.938,1.112-3.92,1.591-5.936c0.003-0.01,0.005-0.02,0.007-0.029c0.227-0.954,0.439-1.917,0.643-2.885
					c0.026-0.125,0.052-0.25,0.078-0.375c0.197-0.959,0.387-1.924,0.562-2.895c0.004-0.021,0.007-0.041,0.011-0.062
					c0.17-0.942,0.326-1.892,0.475-2.844c0.021-0.137,0.043-0.272,0.063-0.408c0.153-1.004,0.296-2.012,0.424-3.023
					c0.021-0.154,0.039-0.308,0.059-0.461c0.066-0.537,0.13-1.074,0.188-1.612c0.039-0.342,0.074-0.683,0.11-1.024
					c0.021-0.203,0.045-0.406,0.064-0.609c-0.001,0-0.003,0.002-0.004,0.002c0.186-1.885,0.335-3.762,0.441-5.626
					c0.166-1.555,0.146-2.517,0.165-3.921c0.013-0.462,0.023-0.923,0.032-1.383c0.003-0.08,0.006-0.157,0.009-0.24
					c-0.001,0-0.003,0.001-0.004,0.002c0.606-33.877-10.621-62.71-11.599-64.78c0,0-8.831-7.594-34.792-7.594
					c-25.96,0-32.424,10.887-32.424,10.887c-6.328,24.285-8.636,44.067-8.714,59.85c-0.013-0.004-0.027-0.008-0.04-0.012
					c0.017,0.299,0.028,0.583,0.037,0.858C11.967,111.705,11.972,112.356,11.979,113.002z"/>
				<g>
					<path fill="#272852" d="M69.538,71.843c-0.347,0.029-0.695,0.041-1.036,0.091c-0.341,0.045-0.679,0.078-1.002,0.141
						c-0.323,0.059-0.638,0.103-0.932,0.181c-0.134,0.034-0.265,0.064-0.393,0.094c-0.732-0.636-1.321-1.54-1.628-2.619
						c-0.711-2.518,0.376-5.028,2.429-5.609c2.053-0.581,4.294,0.989,5.006,3.505c0.438,1.544,0.195,3.083-0.529,4.178
						c-0.286-0.007-0.578-0.005-0.877-0.005C70.234,71.812,69.887,71.82,69.538,71.843z"/>
				</g>
				<g>
					<path fill="#272852" d="M38.504,72.212c0.354-0.06,0.705-0.139,1.057-0.177c0.352-0.042,0.695-0.097,1.034-0.117
						c0.338-0.025,0.664-0.064,0.976-0.062c0.143,0,0.28-0.004,0.415-0.008c0.567-0.822,0.919-1.875,0.945-3.029
						c0.058-2.692-1.674-4.914-3.87-4.962c-2.195-0.048-4.022,2.095-4.082,4.788c-0.035,1.65,0.604,3.123,1.609,4.026
						c0.281-0.081,0.573-0.155,0.871-0.232C37.803,72.362,38.151,72.281,38.504,72.212z"/>
				</g>
				<path fill="#272852" d="M12.308,121.438c1.641,29.282,11.319,40.215,12.897,40.054c3.313-0.337,2.238-7.038,2.385-8.565
					c0.396-4.15,9.095-11.791,26.048-11.611c20.839,0.221,27.04,10.697,24.9,18.852c-0.433,1.648-1.359,9.451,2.29,9.716
					c1.09,0.079,2.86,0.292,8.827-11.923c4.877-9.981,7.972-22.331,9.203-34.959C67.837,135.114,27.025,126.211,12.308,121.438z"/>
				<g>
					<path fill="#272852" d="M99.219,118.036c0.326-2.557,0.177-3.506,0.283-6.203c-31.445,12.278-72.653,3.191-87.572-1.646
						c0.149,2.664-0.058,4.271,0.034,6.633C25.036,121.847,68.338,129.583,99.219,118.036z"/>
				</g>
				<g opacity="0.2">
					<path fill="#263238" d="M78.352,161.122c0.078-0.305,0.146-0.619,0.187-0.955C78.48,160.387,78.414,160.718,78.352,161.122z"/>
					<path fill="#263238" d="M51.81,135.576c-26.132-0.638-25.779,14.06-24.192,19.165c-0.027-0.793-0.062-1.451-0.027-1.814
						c0.396-4.15,9.095-11.791,26.048-11.611c17.786,0.188,24.903,7.848,25.278,15.158C79.477,149.331,76.513,136.179,51.81,135.576
						z"/>
				</g>
				<path opacity="0.2" fill="#263238" d="M47.275,98.354c0,0,3.105,1.661,7.365,1.5c4.259-0.162,7.293-2.834,7.293-2.834
					s-2.041,4.15-7.329,4.291S47.275,98.354,47.275,98.354z"/>
				<path opacity="0.25" fill="#ED1B68" d="M46.062,44.076c6.533-0.178,12.25-0.306,16.617,5.646
					c1.385-2.343,0.853-4.616,0.853-4.616s3.094,1.207,3.783,2.379c-1.223-2.118-4.529-3.354-4.529-3.354s0.319,1.224-0.213,3.354
					C60.656,44.609,52.134,42.372,46.062,44.076z"/>
				<path fill="#272852" d="M76.287,58.092c2.019,0,3.958,0.856,5.315,2.346l0.017,0.019l0.035,0.038l0.042,0.043
					c0.239,0.241,0.475,0.559,0.7,0.946l0.014,0.023l0.014,0.022l0.021,0.037l0.018,0.029l0.01,0.018l0.01,0.016l0.015,0.026
					c0.342,0.582,0.599,1.204,0.763,1.848l0.015,0.057l0.018,0.057c1.292,4.246,0.989,9.904-0.05,12.922l-0.022,0.063l-0.019,0.064
					c-0.881,3.064-3.724,5.204-6.914,5.204c-0.132,0-0.276-0.005-0.47-0.018c-0.084-0.004-0.169-0.012-0.253-0.019l-0.041-0.004
					l-0.016-0.001l-0.017-0.001c-3.293-0.306-7.183-2.403-10.152-5.474c-2.519-2.605-5.602-7.103-5.982-13.735L59.28,61.31
					l0.076-0.507c0.123-0.816,0.553-1.544,1.212-2.05l0.861-0.66H76.287 M47.734,58.092l0.861,0.66
					c0.659,0.506,1.09,1.233,1.212,2.05l0.076,0.507l-0.075,1.308c-0.382,6.632-3.465,11.129-5.983,13.735
					c-2.969,3.071-6.859,5.168-10.152,5.474l-0.016,0.001l-0.017,0.001L33.6,81.833c-0.085,0.007-0.17,0.015-0.267,0.02
					c-0.18,0.011-0.324,0.017-0.456,0.017c-3.19,0-6.033-2.14-6.914-5.204l-0.019-0.064l-0.021-0.063
					c-1.039-3.018-1.343-8.677-0.05-12.922l0.017-0.057l0.015-0.057c0.164-0.644,0.421-1.266,0.763-1.848l0.016-0.026l0.013-0.023
					l0,0l-0.005,0.009l0.012-0.021l0.017-0.028l0.021-0.037l0.014-0.022l0.014-0.023c0.226-0.387,0.462-0.706,0.7-0.946l0.042-0.043
					l0.031-0.035l0.009-0.009l0.008-0.009c1.362-1.494,3.301-2.35,5.319-2.35H47.734 M76.287,55.511c-6.062,0-21.705,0-21.705,0
					s-15.644,0-21.705,0c-2.863,0-5.438,1.231-7.227,3.192l0,0c-0.005,0.006-0.011,0.011-0.016,0.017
					c-0.407,0.411-0.771,0.905-1.097,1.463c-0.021,0.034-0.041,0.068-0.062,0.103c-0.012,0.021-0.023,0.041-0.035,0.062
					c-0.456,0.777-0.81,1.622-1.038,2.517c-1.378,4.528-1.205,10.786,0.079,14.515c1.173,4.083,4.934,7.072,9.395,7.072
					c0.207,0,0.412-0.009,0.616-0.021c0.114-0.006,0.23-0.016,0.347-0.026c0.023-0.002,0.048-0.005,0.071-0.007
					c7.494-0.695,17.733-8.761,18.474-21.63h2.197h2.197c0.74,12.869,10.979,20.935,18.474,21.63
					c0.024,0.002,0.048,0.005,0.072,0.007c0.115,0.01,0.231,0.02,0.346,0.026c0.204,0.013,0.409,0.021,0.616,0.021
					c4.461,0,8.222-2.989,9.396-7.072c1.283-3.729,1.456-9.986,0.078-14.515c-0.229-0.895-0.581-1.739-1.038-2.517
					c-0.012-0.021-0.023-0.041-0.035-0.062c-0.021-0.034-0.041-0.069-0.062-0.103c-0.325-0.558-0.689-1.052-1.097-1.463
					c-0.005-0.006-0.01-0.011-0.016-0.017l0,0C81.726,56.742,79.15,55.511,76.287,55.511L76.287,55.511z M52.36,60.42
					c-0.227-1.511-1.035-2.827-2.194-3.715h4.416h4.416c-1.159,0.889-1.968,2.205-2.194,3.715h-2.222H52.36L52.36,60.42z"/>
				<circle fill="#ED1B68" cx="54.274" cy="89.887" r="6.521"/>
				<g opacity="0.2">
					<path fill="#263238" d="M49.639,89.887c0-3.602,2.075-6.521,4.636-6.521c-3.602,0-6.521,2.92-6.521,6.521
						s2.92,6.521,6.521,6.521C51.714,96.408,49.639,93.489,49.639,89.887z"/>
					<path fill="#263238" d="M54.274,83.366c2.561,0,4.636,2.92,4.636,6.521s-2.075,6.521-4.636,6.521
						c3.602,0,6.521-2.919,6.521-6.521S57.876,83.366,54.274,83.366z"/>
				</g>
				<path fill="#FFC907" d="M63.41,81.989c-3.42-3.419-7.89-2.855-9.105-0.316c-1.215-2.539-5.686-3.103-9.104,0.316
					c-3.993,3.994-7.508,10.223-11.501,4.153c0,0,0.958,7.028,8.466,7.028c6.397,0,10.937-4.64,12.14-8.285
					c1.203,3.646,5.742,8.285,12.141,8.285c7.507,0,8.466-7.028,8.466-7.028C70.917,92.212,67.403,85.982,63.41,81.989z"/>
				<path opacity="0.25" fill="#ED1B68" d="M63.41,81.989c-3.42-3.419-7.89-2.855-9.105-0.316c-1.215-2.539-5.686-3.103-9.104,0.316
					c-3.993,3.994-7.508,10.223-11.501,4.153c0,0,0.958,7.028,8.466,7.028c6.397,0,10.937-4.64,12.14-8.285
					c1.203,3.646,5.742,8.285,12.141,8.285c7.507,0,8.466-7.028,8.466-7.028C70.917,92.212,67.403,85.982,63.41,81.989z"/>
				<path fill="#FFC907" d="M61.934,63.856c2.871,2.183,8.449,2.662,11.645,0.145C76.773,61.483,61.934,63.856,61.934,63.856z"/>
				<path fill="#FFC907" d="M32.906,63.856c2.872,2.183,8.449,2.662,11.646,0.145C47.747,61.483,32.906,63.856,32.906,63.856z"/>
			</g>
		</g>
	</g>
	<path id="XMLID_838_" opacity="0.75" fill="none" stroke="#FFFFFF" stroke-width="3.1148" stroke-miterlimit="10" d="
		M177.596,79.502l-34.941-60.54c-2.221-3.837-6.32-6.205-10.752-6.205H61.995c-4.437,0-8.536,2.368-10.747,6.205l-34.95,60.54
		c-2.221,3.841-2.221,8.572,0,12.413l34.95,60.544c2.211,3.836,6.311,6.208,10.747,6.208h69.907c4.432,0,8.531-2.372,10.752-6.208
		l34.941-60.544C179.819,88.074,179.819,83.343,177.596,79.502z"/>
	<g id="XMLID_836_">
		<path fill="#272852" d="M138.115,2.961c4.147,0,8.017,2.235,10.099,5.83l41.164,71.307c2.075,3.591,2.074,8.058,0,11.655
			l-41.162,71.295c-2.082,3.597-5.952,5.832-10.1,5.832H55.786c-4.151,0-8.022-2.235-10.103-5.83L4.524,91.752
			c-2.078-3.598-2.078-8.062,0-11.655L45.682,8.794c2.083-3.598,5.955-5.833,10.104-5.833H138.115 M138.115,0H55.786
			c-5.228,0-10.049,2.789-12.667,7.31L1.96,78.616c-2.613,4.517-2.613,10.092,0,14.617l41.159,71.297
			c2.618,4.525,7.439,7.311,12.667,7.311h82.329c5.22,0,10.045-2.785,12.663-7.311l41.163-71.297c2.609-4.525,2.609-10.1,0-14.617
			L150.778,7.31C148.16,2.789,143.335,0,138.115,0L138.115,0z"/>
	</g>
</g>
</svg>
