<?xml version="1.0" encoding="utf-8"?>
<!-- Generator: Adobe Illustrator 16.0.0, SVG Export Plug-In . SVG Version: 6.00 Build 0)  -->
<!DOCTYPE svg PUBLIC "-//W3C//DTD SVG 1.1//EN" "http://www.w3.org/Graphics/SVG/1.1/DTD/svg11.dtd">
<svg version="1.1" id="Layer_1" xmlns="http://www.w3.org/2000/svg" xmlns:xlink="http://www.w3.org/1999/xlink" x="0px" y="0px"
	 width="235.333px" height="244.667px" viewBox="0 0 235.333 244.667" enable-background="new 0 0 235.333 244.667"
	 xml:space="preserve">
<g>
	<circle fill="#B4014F" cx="119.216" cy="124.712" r="111.064"/>
	<circle fill="#FFC800" cx="119.216" cy="124.712" r="97.849"/>
	<g>
		<defs>
			<circle id="SVGID_1_" cx="119.216" cy="124.712" r="97.849"/>
		</defs>
		<clipPath id="SVGID_2_">
			<use xlink:href="#SVGID_1_"  overflow="visible"/>
		</clipPath>
		<rect x="20.667" y="24.333" opacity="0.3" clip-path="url(#SVGID_2_)" fill="#FF9600" width="4" height="218"/>
		<rect x="34.667" y="24.333" opacity="0.3" clip-path="url(#SVGID_2_)" fill="#FF9600" width="5" height="218"/>
		<rect x="49.667" y="24.333" opacity="0.3" clip-path="url(#SVGID_2_)" fill="#FF9600" width="5" height="218"/>
		<rect x="64.667" y="24.333" opacity="0.3" clip-path="url(#SVGID_2_)" fill="#FF9600" width="5" height="218"/>
		<rect x="79.667" y="24.333" opacity="0.3" clip-path="url(#SVGID_2_)" fill="#FF9600" width="5" height="218"/>
		<rect x="94.667" y="24.333" opacity="0.3" clip-path="url(#SVGID_2_)" fill="#FF9600" width="5" height="218"/>
		<rect x="109.667" y="24.333" opacity="0.3" clip-path="url(#SVGID_2_)" fill="#FF9600" width="5" height="218"/>
		<rect x="124.667" y="24.333" opacity="0.3" clip-path="url(#SVGID_2_)" fill="#FF9600" width="5" height="218"/>
		<rect x="138.667" y="24.333" opacity="0.3" clip-path="url(#SVGID_2_)" fill="#FF9600" width="5" height="218"/>
		<rect x="153.667" y="24.333" opacity="0.3" clip-path="url(#SVGID_2_)" fill="#FF9600" width="5" height="218"/>
		<rect x="168.667" y="24.333" opacity="0.3" clip-path="url(#SVGID_2_)" fill="#FF9600" width="5" height="218"/>
		<rect x="183.667" y="24.333" opacity="0.3" clip-path="url(#SVGID_2_)" fill="#FF9600" width="5" height="218"/>
		<rect x="198.667" y="24.333" opacity="0.3" clip-path="url(#SVGID_2_)" fill="#FF9600" width="5" height="218"/>
		<rect x="213.667" y="24.333" opacity="0.3" clip-path="url(#SVGID_2_)" fill="#FF9600" width="5" height="218"/>
	</g>
	<g>
		<path fill-rule="evenodd" clip-rule="evenodd" fill="#B4014F" d="M115.49,68.354L115.49,68.354
			c2.351,1.068,3.399,3.865,2.333,6.214l-20.438,45c-1.068,2.353-3.865,3.401-6.218,2.333l0,0c-2.351-1.068-3.4-3.865-2.333-6.218
			l20.439-44.998C110.343,68.334,113.137,67.286,115.49,68.354z"/>
		<path fill-rule="evenodd" clip-rule="evenodd" fill="#B4014F" d="M124.051,68.299v-0.003c2.367-1.029,5.146,0.068,6.178,2.433
			l19.723,45.317c1.029,2.369-0.064,5.15-2.43,6.179h-0.002c-2.365,1.032-5.146-0.062-6.176-2.43L121.62,74.478
			C120.59,72.106,121.684,69.328,124.051,68.299z"/>
		<path fill-rule="evenodd" clip-rule="evenodd" fill="#B4014F" d="M62.288,119.01l10.269,50.909
			c1.429,5.459,6.843,9.938,12.041,9.957l34.389,0.119l34.385,0.119c5.201,0.023,10.65-4.42,12.115-9.869l10.625-50.838
			L62.288,119.01z"/>
		<path fill-rule="evenodd" clip-rule="evenodd" fill="#312F33" d="M141.627,117.355c-0.008,2.136,1.723,3.878,3.861,3.885
			c2.141,0.01,3.875-1.72,3.883-3.859c0.01-2.136-1.715-3.875-3.855-3.885C143.379,113.49,141.635,115.219,141.627,117.355z"/>
		<path fill-rule="evenodd" clip-rule="evenodd" fill="#B4014F" d="M148.684,172.582c1.637,0.006,3.094-1.162,3.393-2.827
			l6.023-32.988c0.338-1.864-0.898-3.659-2.766-4.001c-1.875-0.342-3.672,0.9-4.012,2.766l-6.014,32.988
			c-0.34,1.871,0.896,3.662,2.766,4.004C148.276,172.562,148.483,172.582,148.684,172.582z"/>
		<path fill-rule="evenodd" clip-rule="evenodd" fill="#B4014F" d="M133.827,172.526c1.777,0.007,3.289-1.345,3.438-3.14
			l2.838-32.998c0.166-1.894-1.232-3.562-3.131-3.729c-1.893-0.168-3.557,1.232-3.727,3.126l-2.832,33.002
			c-0.17,1.887,1.236,3.562,3.129,3.727C133.633,172.519,133.735,172.526,133.827,172.526z"/>
		<path fill-rule="evenodd" clip-rule="evenodd" fill="#B4014F" d="M89.333,172.371c-1.636-0.006-3.08-1.18-3.37-2.849l-5.789-33.03
			c-0.327-1.868,0.927-3.652,2.798-3.979c1.871-0.328,3.655,0.924,3.981,2.791l5.787,33.031c0.327,1.874-0.921,3.654-2.796,3.984
			C89.741,172.359,89.538,172.371,89.333,172.371z"/>
		<path fill-rule="evenodd" clip-rule="evenodd" fill="#B4014F" d="M104.187,172.423c-1.766-0.007-3.269-1.369-3.414-3.162
			l-2.603-33.018c-0.152-1.897,1.261-3.559,3.152-3.711c1.897-0.151,3.556,1.262,3.709,3.156l2.604,33.018
			c0.149,1.893-1.262,3.552-3.152,3.707C104.383,172.417,104.285,172.423,104.187,172.423z"/>
		<path fill-rule="evenodd" clip-rule="evenodd" fill="#B4014F" d="M119.196,132.584c-0.016,0-0.031,0.003-0.047,0.003
			c-0.008,0-0.023-0.006-0.039-0.006c-1.905-0.007-3.45,1.529-3.458,3.433l-0.115,33.13c-0.006,1.9,1.526,3.449,3.434,3.456
			c0.014,0,0.029-0.003,0.037-0.003c0.016,0,0.033,0.003,0.049,0.003c1.889,0.007,3.438-1.532,3.447-3.433l0.115-33.127
			C122.625,134.133,121.086,132.587,119.196,132.584z"/>
		<g>
			<path fill-rule="evenodd" clip-rule="evenodd" fill="#FFC800" d="M154.473,170.145c1.02,0.003,1.926-0.724,2.111-1.759
				l3.75-30.584c0.211-1.162-0.559-2.281-1.723-2.491c-1.168-0.213-2.285,0.558-2.498,1.72l-3.746,30.584
				c-0.209,1.168,0.561,2.281,1.725,2.494C154.217,170.135,154.346,170.145,154.473,170.145z"/>
			<path fill-rule="evenodd" clip-rule="evenodd" fill="#FFC800" d="M137.004,170.068c1.104,0.003,2.045-0.84,2.141-1.955
				l1.764-30.592c0.105-1.178-0.766-2.22-1.947-2.322c-1.18-0.104-2.217,0.768-2.32,1.948l-1.766,30.591
				c-0.105,1.178,0.77,2.22,1.949,2.323C136.881,170.064,136.946,170.068,137.004,170.068z"/>
			<path fill-rule="evenodd" clip-rule="evenodd" fill="#FFC800" d="M84.305,169.929c-1.02-0.004-1.919-0.736-2.1-1.775
				L78.6,137.544c-0.203-1.162,0.576-2.275,1.742-2.479c1.165-0.203,2.275,0.574,2.479,1.738l3.604,30.611
				c0.205,1.168-0.574,2.274-1.739,2.48C84.56,169.919,84.43,169.929,84.305,169.929z"/>
			<path fill-rule="evenodd" clip-rule="evenodd" fill="#FFC800" d="M101.772,170.003c-1.1-0.004-2.035-0.852-2.126-1.969
				l-1.62-30.604c-0.097-1.182,0.784-2.217,1.962-2.311c1.182-0.094,2.215,0.784,2.311,1.965l1.619,30.604
				c0.096,1.178-0.783,2.211-1.961,2.308C101.896,170,101.834,170.003,101.772,170.003z"/>
			<path fill-rule="evenodd" clip-rule="evenodd" fill="#FFC800" d="M119.506,135.153c-0.01,0-0.02,0-0.029,0
				c-0.006,0-0.014-0.003-0.023-0.003c-1.187-0.004-2.15,0.951-2.155,2.139l-0.07,30.672c-0.005,1.184,0.949,2.148,2.139,2.152
				c0.006,0,0.018,0,0.021,0c0.01,0,0.02,0,0.029,0c1.178,0.006,2.143-0.952,2.148-2.137l0.072-30.672
				C121.641,136.118,120.684,135.156,119.506,135.153z"/>
		</g>
		<path fill-rule="evenodd" clip-rule="evenodd" fill="#FFC800" d="M176.409,111.541l-57.174-0.203l-57.178-0.2
			c-2.058-0.007-3.727,1.178-3.732,2.646l-0.029,8.337c-0.007,1.468,1.657,2.659,3.714,2.666l57.177,0.2l57.176,0.2
			c2.062,0.006,3.738-1.171,3.746-2.643l0.027-8.334C180.143,112.741,178.471,111.544,176.409,111.541z"/>
		<path fill-rule="evenodd" clip-rule="evenodd" fill="#B4014F" d="M176.409,108.237l-57.174-0.203l-57.178-0.2
			c-2.058-0.006-3.727,1.178-3.732,2.646l-0.029,8.337c-0.007,1.468,1.657,2.659,3.714,2.665l57.177,0.2l57.176,0.2
			c2.062,0.007,3.738-1.171,3.746-2.643l0.027-8.334C180.143,109.437,178.471,108.24,176.409,108.237z"/>
		<path fill-rule="evenodd" clip-rule="evenodd" fill="#FFC800" d="M96.784,114.842c-0.006,2.139-1.745,3.872-3.885,3.865
			c-2.136-0.01-3.866-1.752-3.858-3.895c0.006-2.136,1.75-3.862,3.888-3.855C95.064,110.967,96.794,112.703,96.784,114.842z"/>
		<path fill-rule="evenodd" clip-rule="evenodd" fill="#FFC800" d="M148.961,115.374c-0.006,2.139-1.742,3.869-3.881,3.862
			c-2.141-0.01-3.869-1.749-3.863-3.888s1.75-3.865,3.889-3.859S148.969,113.235,148.961,115.374z"/>
	</g>
	<circle fill="none" stroke="#FFFFFF" stroke-width="2" stroke-miterlimit="10" cx="119.216" cy="124.712" r="97.849"/>
</g>
</svg>
